Name,Division,BirthYear,BodyweightKg,Bench1Kg,Bench2Kg,Bench3Kg,Best3BenchKg,Bench4Kg,WeightClassKg,Sex,CyrillicName,Tested,Equipment,Squat1Kg,Squat2Kg,Squat3Kg,Best3SquatKg,Deadlift1Kg,Deadlift2Kg,Deadlift3Kg,Best3DeadliftKg,Deadlift4Kg,Event,TotalKg,Place
Eva Merzon,Open,1991,46.4,30,35,40,40,,48,F,Ева Мерзон,No,Raw,,,,,,,,,,B,40,3
Sergey Ivanov,Juniors 20-23,1998,47.5,35,40,45,45,,52,M,Сергей Иванов,No,Raw,,,,,,,,,,B,45,1
Vladimir Shishikin,Teen,1999,50,50,52.5,55,55,,52,M,Владимир Шишикин,No,Raw,,,,,,,,,,B,55,1
Grigoriy Loschinin,Open,1991,56.3,75,77.5,-82.5,77.5,,60,M,Григорий Лощинин,No,Raw,,,,,,,,,,B,77.5,2
Nikita Konstantinov,Juniors 20-23,1996,72,95,-100,,95,,75,M,Никита Константинов,No,Raw,,,,,,,,,,B,95,2
Nikolay Petrakovich,Open,1979,74.8,110,115,-120,115,,75,M,Николай Петракович,No,Raw,,,,,,,,,,B,115,7
Sergey Dyubkin,Open,1982,80,150,155,-160,155,,82.5,M,Сергей Дюбкин,No,Raw,,,,,,,,,,B,155,5
Sergey Galanin,Open,1984,84.2,70,80,90,90,,90,M,Сергей Галанин,No,Raw,,,,,,,,,,B,90,16
Natalya Konovalova,Open,1988,59.5,120,-130,130,130,-137.5,60,F,Наталья Коновалова,No,Raw,,,,,,,,,,B,130,1
Oksana Kuznetsova,Open,1990,58.2,70,75,82.5,82.5,,60,F,Оксана Кузнецова,No,Raw,,,,,,,,,,B,82.5,3
Natalya Samarina,Open,1984,66.4,130,135,140,140,142.5,67.5,F,Наталья Самарина,No,Raw,,,,,,,,,,B,140,1
Yana Kodzaeva,Open,1993,84.4,115,120,-125,120,,90,F,Яна Кодзаева,No,Raw,,,,,,,,,,B,120,1
Roman Belousov,Open,1991,54.6,160,165,-167.5,165,,56,M,Роман Белоусов,No,Raw,,,,,,,,,,B,165,1
Gleb Nazarenko,Teen,2003,73.1,47.5,52.5,55,55,,75,M,Глеб Назаренко,No,Raw,,,,,,,,,,B,55,2
Dmitriy Volkov,Open,1982,71.9,155,160,162.5,162.5,,75,M,Дмитрий Волков,No,Raw,,,,,,,,,,B,162.5,1
Aleksandr Shibaev,Open,1991,72.6,150,157.5,160,160,,75,M,Александр Шибаев,No,Raw,,,,,,,,,,B,160,2
Artur Minasyan,Open,1988,73.2,130,140,-150,140,,75,M,Артур Минасян,No,Raw,,,,,,,,,,B,140,5
Ruslan Rukavishnikov,Juniors 20-23,1994,79.9,160,-165,165,165,,82.5,M,Руслан Рукавишников,No,Raw,,,,,,,,,,B,165,1
Alexander Alexandrov,Open,1979,82.1,200,210,217.5,217.5,,82.5,M,Александр Александров,No,Raw,,,,,,,,,,B,217.5,1
Ilya Pankratov,Open,1986,82,207.5,215,-220,215,,82.5,M,Илья Панкратов,No,Raw,,,,,,,,,,B,215,2
Denis Sokov,Open,1985,80.3,180,-187.5,-187.5,180,,82.5,M,Денис Соков,No,Raw,,,,,,,,,,B,180,4
Nacim Ighalloune,Open,1993,82.2,142.5,150,155,155,,82.5,M,,No,Raw,,,,,,,,,,B,155,6
Evgeniy Zaulin,Open,1987,78.2,130,135,140,140,,82.5,M,Евгений Заулин,No,Raw,,,,,,,,,,B,140,7
Igor Polivanov,Masters 40-44,1974,80.7,160,165,-170,165,,82.5,M,Игорь Поливанов,No,Raw,,,,,,,,,,B,165,1
Valeriy Boyarchenko,Masters 40-44,1974,82.3,150,157.5,-165,157.5,,82.5,M,Валерий Боярченко,No,Raw,,,,,,,,,,B,157.5,2
Dmitriy Bakhteev,Masters 50-54,1966,81.7,130,-135,-135,130,,82.5,M,Дмитрий Бахтеев,No,Raw,,,,,,,,,,B,130,1
Vyacheslav Troshinskiy,Masters 55-59,1960,79.8,115,125,132.5,132.5,,82.5,M,Вячеслав Трошинский,No,Raw,,,,,,,,,,B,132.5,1
Sergey Gopko,Masters 60-64,1956,81.1,140,147.5,150,150,,82.5,M,Сергей Гопко,No,Raw,,,,,,,,,,B,150,1
Evgeniy Voloskiy,Open,1987,85.6,220,230,-240,230,,90,M,Евгений Волоский,No,Raw,,,,,,,,,,B,230,1
Vitaliy Nikolaev,Open,1982,89,205,215,-222.5,215,,90,M,Виталий Николаев,No,Raw,,,,,,,,,,B,215,2
Roman Dagaev,Open,1980,90,185,190,-195,190,,90,M,Роман Дагаев,No,Raw,,,,,,,,,,B,190,5
Ivan Prusov,Open,1983,88,175,180,182.5,182.5,,90,M,,No,Raw,,,,,,,,,,B,182.5,7
Ilya Garkin,Open,1990,88.5,165,175,180,180,,90,M,Илья Гарькин,No,Raw,,,,,,,,,,B,180,8
Aleksey Zaytsev,Open,1991,88.4,170,175,-177.5,175,,90,M,Алексей Зайцев,No,Raw,,,,,,,,,,B,175,9
Sergey Bugakov,Masters 40-44,1975,89.3,170,175,180,180,-182.5,90,M,Сергей Бугаков,No,Raw,,,,,,,,,,B,180,1
Sergey Yanov,Masters 50-54,1964,87.6,100,-105,-107.5,100,,90,M,,No,Raw,,,,,,,,,,B,100,1
Bogdan Lukyanov,Teen,1998,94.7,130,137.5,142.5,142.5,,100,M,Богдан Лукьянов,No,Raw,,,,,,,,,,B,142.5,1
Sergey Popov,Juniors 20-23,1995,99.7,200,207.5,215,215,,100,M,Сергей Попов,No,Raw,,,,,,,,,,B,215,1
Egor Petrov,Juniors 20-23,1996,99.2,170,,,170,,100,M,Егор Петров,No,Raw,,,,,,,,,,B,170,2
Sergey Popov,Open,1995,99.7,200,207.5,215,215,,100,M,Сергей Попов,No,Raw,,,,,,,,,,B,215,1
Nikita Kushnir,Open,1984,99.1,197.5,207.5,-215,207.5,,100,M,Никита Кушнир,No,Raw,,,,,,,,,,B,207.5,2
Roman Semenov,Open,1979,94.1,205,-210,,205,,100,M,Роман Семенов,No,Raw,,,,,,,,,,B,205,3
Aleksandr Kunakov,Open,1980,97.1,185,-200,200,200,,100,M,Александр Кунаков,No,Raw,,,,,,,,,,B,200,4
Evgeniy Klyuchnikov,Open,1990,93.6,175,192.5,-200,192.5,,100,M,Евгений Ключников,No,Raw,,,,,,,,,,B,192.5,5
Valeriy Zhikulin,Open,1983,98.1,155,162.5,172.5,172.5,,100,M,Валерий Жикулин,No,Raw,,,,,,,,,,B,172.5,10
Yusuf Akhmedov,Open,1984,96.7,160,170,-180,170,,100,M,,No,Raw,,,,,,,,,,B,170,11
Kirill Emelyanov,Open,1986,97.9,-160,160,-170,160,,100,M,Кирилл Емельянов,No,Raw,,,,,,,,,,B,160,12
Nodar Tsutskiridze,Masters 40-44,1976,99.9,170,-177.5,180,180,,100,M,Нодар Цуцкиридзе,No,Raw,,,,,,,,,,B,180,2
Aleksey Strulev,Masters 45-49,1971,98.7,145,155,160,160,,100,M,Алексей Струлев,No,Raw,,,,,,,,,,B,160,1
Yuriy Samsonov,Open,1982,107.2,210,217.5,222.5,222.5,,110,M,Юрий Самсонов,No,Raw,,,,,,,,,,B,222.5,1
Andrey Apalkov,Open,1979,109.8,-220,222.5,-230,222.5,,110,M,Андрей Апальков,No,Raw,,,,,,,,,,B,222.5,2
Evgeniy Zorin,Open,1979,108.2,200,210,220,220,,110,M,Евгений Зорин,No,Raw,,,,,,,,,,B,220,3
Dmitriy Obrazumov,Open,1980,108.8,182.5,192.5,195,195,,110,M,Дмитрий Образумов,No,Raw,,,,,,,,,,B,195,5
Dmitriy Lepekhov,Open,1989,101.6,-180,180,187.5,187.5,,110,M,Дмитрий Лепехов,No,Raw,,,,,,,,,,B,187.5,6
Vladimir Lepeshenkov,Open,1982,101.7,155,170,180,180,,110,M,Владимир Лепешенков,No,Raw,,,,,,,,,,B,180,8
Magomedamin Israpilov,Masters 40-44,1975,107.3,160,170,,170,,110,M,Магомедамин Исрапилов,No,Raw,,,,,,,,,,B,170,1
Oleg Kulakov,Masters 45-49,1969,107.1,187.5,-192.5,-192.5,187.5,,110,M,Олег Кулаков,No,Raw,,,,,,,,,,B,187.5,1
Aleksandr Moiseev,Masters 45-49,1972,105.7,180,-190,-190,180,,110,M,Александр Моисеев,No,Raw,,,,,,,,,,B,180,2
Andrey Lukyanov,Masters 45-49,1969,108.2,160,,,160,,110,M,Андрей Лукьянов,No,Raw,,,,,,,,,,B,160,3
Yuriy Kapitonov,Masters 60-64,1957,101.7,150,155,157.5,157.5,,110,M,Юрий Капитонов,No,Raw,,,,,,,,,,B,157.5,1
Anton Begalko,Open,1986,120.7,255,267.5,273,273,277.5,125,M,Антон Бегалко,No,Raw,,,,,,,,,,B,273,1
Aleksey Markelov,Open,1984,113,230,240,-245,240,,125,M,Алексей Маркелов,No,Raw,,,,,,,,,,B,240,2
Sergey Zhurlov,Masters 45-49,1969,112.2,150,160,-167.5,160,,125,M,Сергей Журлов,No,Raw,,,,,,,,,,B,160,1
Dmitriy Bubnov,Open,1973,133.6,207.5,225,-245,225,,140,M,Дмитрий Бубнов,No,Raw,,,,,,,,,,B,225,1
Andrey Nazentsev,Open,1983,137.5,225,-242.5,-242.5,225,,140,M,Андрей Назенцев,No,Raw,,,,,,,,,,B,225,2
Mohamed Bouafia,Open,1976,129.6,-210,210,-220,210,,140,M,,No,Raw,,,,,,,,,,B,210,3
Ammar Abdelgani,Open,1981,129.9,170,-180,180,180,,140,M,,No,Raw,,,,,,,,,,B,180,4
Mohamed Bouafia,Masters 40-44,1976,129.6,-210,210,-220,210,,140,M,,No,Raw,,,,,,,,,,B,210,1
Nadezhda Mochalova,Youth,2007,39.8,42.5,45,-47.5,45,,44,F,Надежда Мочалова,Yes,Raw,,,,,,,,,,B,45,1
Liliya Kinzhagulova,Open,1973,46.1,57.5,60,-62.5,60,,48,F,Лилия Кинжагулова,Yes,Raw,,,,,,,,,,B,60,1
Evgeniya Astafyeva,Open,1982,46.8,-52.5,52.5,-55,52.5,,48,F,Евгения Астафьева,Yes,Raw,,,,,,,,,,B,52.5,2
Liliya Kinzhagulova,Masters 40-44,1973,46.1,57.5,60,-62.5,60,,48,F,Лилия Кинжагулова,Yes,Raw,,,,,,,,,,B,60,1
Anastasiya Oreshina,Juniors 20-23,1998,50.1,-52.5,52.5,-55,52.5,,52,F,Анастасия Орешина,Yes,Raw,,,,,,,,,,B,52.5,1
Yuliya Garipova,Open,1987,51.4,-52.5,52.5,-55,52.5,,52,F,Юлия Гарипова,Yes,Raw,,,,,,,,,,B,52.5,1
Olga Nasonova,Open,1986,51,42.5,-47.5,-50,42.5,,52,F,Ольга Насонова,Yes,Raw,,,,,,,,,,B,42.5,2
Irina Safina,Open,1987,51.6,-52.5,-55,-55,,,52,F,Ирина Сафина,Yes,Raw,,,,,,,,,,B,,DQ
Anastasiya Papyan,Open,1982,52,-57.5,-57.5,-57.5,,,52,F,Анастасия Папян,Yes,Raw,,,,,,,,,,B,,DQ
Natalya Palmina,Masters 45-49,1972,50.8,-45,-45,45,45,,52,F,Наталья Пальмина,Yes,Raw,,,,,,,,,,B,45,1
Olga Korobkova,Open,1982,55.2,-65,65,-67.5,65,,56,F,Ольга Коробкова,Yes,Raw,,,,,,,,,,B,65,1
Evgeniya Solovyeva,Open,1981,55.5,-55,-55,-55,,,56,F,Евгения Соловьева,Yes,Raw,,,,,,,,,,B,,DQ
Anna Shmeleva,Juniors 20-23,1996,58.7,47.5,-52.5,-52.5,47.5,,60,F,Анна Шмелева,Yes,Raw,,,,,,,,,,B,47.5,1
Ekaterina Dudareva,Open,1993,58.7,80,85,-87.5,85,,60,F,Екатерина Дударева,Yes,Raw,,,,,,,,,,B,85,2
Aleksandra Vedeneeva,Open,1985,58.9,75,-80,80,80,,60,F,Александра Веденеева,Yes,Raw,,,,,,,,,,B,80,4
Natalya Sivacheva,Open,1979,58.5,65,67.5,70,70,,60,F,Наталья Сивачева,Yes,Raw,,,,,,,,,,B,70,5
Svetlana Cherkasova,Open,1989,58,57.5,62.5,-67.5,62.5,,60,F,Светлана Черкасова,Yes,Raw,,,,,,,,,,B,62.5,6
Elena Medvedeva,Masters 55-59,1962,58.9,47.5,-52.5,-52.5,47.5,,60,F,Елена Медведева,Yes,Raw,,,,,,,,,,B,47.5,1
Anna Bukhova,Juniors 20-23,1995,66.2,-57.5,57.5,-62.5,57.5,,67.5,F,Анна Бухова,Yes,Raw,,,,,,,,,,B,57.5,1
Ekaterina Stepanova,Open,1988,65.9,-65,-65,65,65,,67.5,F,Екатерина Степанова,Yes,Raw,,,,,,,,,,B,65,2
Yuliya Makarova,Masters 45-49,1969,64.2,67.5,72.5,-75,72.5,,67.5,F,Юлия Макарова,Yes,Raw,,,,,,,,,,B,72.5,1
Alena Kholina,Teen,2000,76.8,57.5,-62.5,-62.5,57.5,,82.5,F,Алена Холина,Yes,Raw,,,,,,,,,,B,57.5,1
Kristina Utkina,Teen,1998,90.3,75,-80,-80,75,,90+,F,Кристина Уткина,Yes,Raw,,,,,,,,,,B,75,1
Kristina Utkina,Open,1998,90.3,75,-80,-80,75,,90+,F,Кристина Уткина,Yes,Raw,,,,,,,,,,B,75,1
Aleksey Kolisnichenko,Juniors 20-23,1994,49,-100,102.5,105,105,,52,M,Алексей Колисниченко,Yes,Raw,,,,,,,,,,B,105,1
Gagik Sagatelyan,Juniors 20-23,1996,57.5,115,-120,-120,115,,60,M,Гагик Сагателян,Yes,Raw,,,,,,,,,,B,115,1
Sergey Pronichkin,Open,1989,59.5,122.5,127.5,-130,127.5,,60,M,Сергей Проничкин,Yes,Raw,,,,,,,,,,B,127.5,1
Kirill Sukhov,Teen,2005,61.9,70,75,80,80,,67.5,M,Кирилл Сухов,Yes,Raw,,,,,,,,,,B,80,1
Maksim Kudryavtsev,Juniors 20-23,1994,63.5,110,120,-125,120,,67.5,M,Максим Кудрявцев,Yes,Raw,,,,,,,,,,B,120,1
Dmitriy Ermolaev,Juniors 20-23,1995,67.2,150,157.5,160,160,,67.5,M,Дмитрий Ермолаев,Yes,Raw,,,,,,,,,,B,,DQ
Kakhaber Tarimanashvili,Open,1983,66.8,135,-142.5,-142.5,135,,67.5,M,Кахабер Тариманашвили,Yes,Raw,,,,,,,,,,B,135,1
Aldair Aliev,Open,1992,66.2,-120,125,130,130,,67.5,M,Альдаир Алиев,Yes,Raw,,,,,,,,,,B,130,2
Viktor Usov,Open,1989,64.6,-115,117.5,-125,117.5,,67.5,M,Виктор Усов,Yes,Raw,,,,,,,,,,B,117.5,3
Vladimir Serga,Teen,2001,75,105,-112.5,-112.5,105,,75,M,Владимир Серга,Yes,Raw,,,,,,,,,,B,105,1
Leonid Kolomeyskiy,Teen,2002,74.1,-95,-95,-105,,,75,M,Леонид Коломейский,Yes,Raw,,,,,,,,,,B,,DQ
Marsel Sharafutdinov,Juniors 20-23,1995,72.7,117.5,-122.5,122.5,122.5,,75,M,Марсель Шарафутдинов,Yes,Raw,,,,,,,,,,B,122.5,1
Andrey Skoryatin,Open,1992,74,147.5,-150,150,150,,75,M,Андрей Скорятин,Yes,Raw,,,,,,,,,,B,150,3
Vitaliy Poluyanenkov,Open,1988,73.7,-145,-145,145,145,,75,M,Виталий Полуяненков,Yes,Raw,,,,,,,,,,B,145,4
Anatoliy Pen,Open,1982,74.4,135,-140,-140,135,,75,M,Анатолий Пен,Yes,Raw,,,,,,,,,,B,135,6
Evgeniy Ezbin,Open,1987,73.8,100,-110,-110,100,,75,M,Евгений Эзбин,Yes,Raw,,,,,,,,,,B,100,8
Parviz Odinaev,Open,1982,74,-210,-210,,,,75,M,,Yes,Raw,,,,,,,,,,B,,DQ
Stanislav Martynyuk,Open,1985,72.1,-117.5,-117.5,,,,75,M,Станислав Мартынюк,Yes,Raw,,,,,,,,,,B,,DQ
Tamerlan Kerimagaev,Juniors 20-23,1994,81.7,135,145,152.5,152.5,,82.5,M,Тамерлан Керимагаев,Yes,Raw,,,,,,,,,,B,152.5,2
Daniil Bogachev,Juniors 20-23,1997,81.5,130,132.5,-135,132.5,,82.5,M,Даниил Богачев,Yes,Raw,,,,,,,,,,B,132.5,3
Ramil Bektemirov,Open,1987,80.1,180,185,-187.5,185,,82.5,M,Рамиль Бектемиров,Yes,Raw,,,,,,,,,,B,185,3
Aleksey Tokarev,Open,1991,81.9,-120,120,-127.5,120,,82.5,M,Алексей Токарев,Yes,Raw,,,,,,,,,,B,120,8
Anton Morkin,Open,1979,80.3,95,105,112.5,112.5,,82.5,M,Антон Моркин,Yes,Raw,,,,,,,,,,B,112.5,9
Ivan Pustovalov,Teen,2001,89,130,142.5,152.5,152.5,,90,M,Иван Пустовалов,Yes,Raw,,,,,,,,,,B,152.5,1
Konstantin Kholostov,Juniors 20-23,1995,88,135,152.5,155,155,,90,M,Константин Холостов,Yes,Raw,,,,,,,,,,B,155,1
Yuriy Kreppo,Juniors 20-23,1994,88,120,125,132.5,132.5,,90,M,Юрий Креппо,Yes,Raw,,,,,,,,,,B,132.5,2
Viktor Borinets,Open,1989,86.6,185,192.5,-200,192.5,,90,M,Віктор Боринец,Yes,Raw,,,,,,,,,,B,192.5,3
Andrey Prikhodko,Open,1983,89.7,175,185,190,190,,90,M,Андрей Приходько,Yes,Raw,,,,,,,,,,B,190,4
Ilya Vorontsov,Open,1982,86.6,-175,177.5,185,185,,90,M,Илья Воронцов,Yes,Raw,,,,,,,,,,B,185,6
Aleksandr Karelin,Open,1993,87.1,152.5,160,167.5,167.5,,90,M,Александр Карелин,Yes,Raw,,,,,,,,,,B,167.5,10
Stanislav Frolov,Open,1986,87,157.5,165,-170,165,,90,M,Станислав Фролов,Yes,Raw,,,,,,,,,,B,165,11
Dmitriy Biryukov,Open,1982,87.5,132.5,140,-152.5,140,,90,M,Дмитрий Бирюков,Yes,Raw,,,,,,,,,,B,140,12
Denis Yudin,Open,1983,88.9,125,132.5,140,140,,90,M,Денис Юдин,Yes,Raw,,,,,,,,,,B,140,13
Konstantin Reshetnik,Open,1987,88.9,135,140,-142.5,140,,90,M,Константин Решетник,Yes,Raw,,,,,,,,,,B,140,14
Ivan Bekhtold,Open,1988,83.8,125,-130,-135,125,,90,M,Иван Бехтольд,Yes,Raw,,,,,,,,,,B,125,15
Ivan Samusenkov,Open,1993,87.8,180,190,200,200,,90,M,Иван Самусенков,Yes,Raw,,,,,,,,,,B,,DQ
Sergey Ermolaev,Open,1987,89.5,165,175,177.5,177.5,,90,M,Сергей Ермолаев,Yes,Raw,,,,,,,,,,B,,DQ
Andrey Erokhov,Masters 40-44,1974,85.7,170,180,190,190,,90,M,Андрей Ерохов,Yes,Raw,,,,,,,,,,B,,DQ
Evgeniy Grishin,Masters 50-54,1966,89,85,87.5,,87.5,,90,M,Евгений Гришин,Yes,Raw,,,,,,,,,,B,87.5,2
Roman Shemanov,Juniors 20-23,1995,98.2,155,-162.5,-162.5,155,,100,M,Роман Шеманов,Yes,Raw,,,,,,,,,,B,155,3
Sergey Golubenko,Juniors 20-23,1995,94,140,-152.5,-155,140,,100,M,Сергей Голубенко,Yes,Raw,,,,,,,,,,B,140,4
Vladislav Zhdanov,Juniors 20-23,1995,98.9,135,140,-150,140,,100,M,Владислав Жданов,Yes,Raw,,,,,,,,,,B,140,5
Evgeniy Litovskiy,Open,1981,99.6,185,-190,190,190,,100,M,Евгений Литовский,Yes,Raw,,,,,,,,,,B,190,6
Altanbagana Sharavdorj,Open,1990,99.8,190,-197.5,-197.5,190,,100,M,,Yes,Raw,,,,,,,,,,B,190,7
Vasiliy Zharkov,Open,1979,97.7,165,175,182.5,182.5,,100,M,Василий Жарков,Yes,Raw,,,,,,,,,,B,182.5,8
Beglar Gadzhikurbanov,Open,1981,93.8,170,180,-185,180,,100,M,Беглар Гаджикурбанов,Yes,Raw,,,,,,,,,,B,180,9
Vladimir Semochkin,Open,1986,98.8,160,-170,-170,160,,100,M,Владимир Семочкин,Yes,Raw,,,,,,,,,,B,160,13
Mikhail Pleschenko,Open,1989,97.8,-130,-140,-140,,,100,M,Михаил Плещенко,Yes,Raw,,,,,,,,,,B,,DQ
Artem Kabanin,Open,1983,98.3,-185,-185,-185,,,100,M,,Yes,Raw,,,,,,,,,,B,,DQ
Aleksandr Kogotkov,Open,1993,99.7,-130,-130,-140,,,100,M,Александр Коготков,Yes,Raw,,,,,,,,,,B,,DQ
Sergey Ukhanov,Masters 40-44,1974,98.3,180,190,195,195,,100,M,Сергей Уханов,Yes,Raw,,,,,,,,,,B,195,1
Aleksandr Shuralev,Masters 40-44,1975,96.5,165,170,-175,170,,100,M,Александр Шуралев,Yes,Raw,,,,,,,,,,B,170,3
Dmitriy Tolstov,Masters 40-44,1973,99.1,140,145,150,150,,100,M,Дмитрий Толстов,Yes,Raw,,,,,,,,,,B,150,4
Sergey Katovich,Masters 40-44,1976,93.5,125,-130,-130,125,,100,M,,Yes,Raw,,,,,,,,,,B,125,5
Viktor Fedotov,Teen,2002,103.3,-125,125,135,135,,110,M,Виктор Федотов,Yes,Raw,,,,,,,,,,B,135,1
Ilya Vereschagin,Juniors 20-23,1995,109.6,-185,185,-195,185,,110,M,Илья Верещагин,Yes,Raw,,,,,,,,,,B,,DQ
Aleksey Matskevich,Open,1974,102.8,200,207.5,210,210,,110,M,Алексей Мацкевич,Yes,Raw,,,,,,,,,,B,210,4
Andrey Imenyev,Open,1989,106.9,175,185,-192.5,185,,110,M,Андрей Именьев,Yes,Raw,,,,,,,,,,B,185,7
Yuriy Budaragin,Open,1985,105.6,-140,-142.5,142.5,142.5,,110,M,Юрий Бударагин,Yes,Raw,,,,,,,,,,B,142.5,9
Magomedamin Israpilov,Masters 40-44,1975,107.3,160,170,,170,,110,M,Магомедамин Исрапилов,Yes,Raw,,,,,,,,,,B,170,2
Ilya Gridnev,Masters 40-44,1976,109.9,160,-167.5,-167.5,160,,110,M,Илья Гриднев,Yes,Raw,,,,,,,,,,B,160,3
Nikolay Makarov,Masters 50-54,1967,107.4,155,167.5,-170,167.5,,110,M,Николай Макаров,Yes,Raw,,,,,,,,,,B,167.5,1
Igor Kurotchenko,Masters 55-59,1962,109.4,130,140,,140,,110,M,Игорь Куротченко,Yes,Raw,,,,,,,,,,B,140,1
Vladislav Makushka,Juniors 20-23,1995,112.6,190,-202.5,-202.5,190,,125,M,Владислав Макушка,Yes,Raw,,,,,,,,,,B,190,1
Dmitriy Tarasov,Open,1986,117.9,195,202.5,205,205,,125,M,Дмитрий Тарасов,Yes,Raw,,,,,,,,,,B,205,3
Nikita Tulyakov,Open,1988,112.7,165,172.5,180,180,,125,M,Никита Туляков,Yes,Raw,,,,,,,,,,B,180,4
Vladimir Chubarov,Masters 50-54,1964,125,172.5,177.5,-180,177.5,,125,M,Владимир Чубаров,Yes,Raw,,,,,,,,,,B,177.5,1
Sergey Zhukov,Masters 40-44,1973,139.9,182.5,-187.5,-187.5,182.5,,140,M,Сергей Жуков,Yes,Raw,,,,,,,,,,B,182.5,2
Yuriy Eremin,Open,1983,80.9,-240,240,-272.5,240,,82.5,M,Юрий Еремин,No,Multi-ply,,,,,,,,,,B,240,2
Aleksandr Rystsov,Open,1979,110.6,-285,-285,-285,,,125,M,Александр Рысцов,No,Multi-ply,,,,,,,,,,B,,DQ
Olga Rozhkova,Open,1974,60,110,120,126,126,,60,F,Ольга Рожкова,No,Single-ply,,,,,,,,,,B,126,1
Vladimir Belyakhin,Open,1989,66.4,215,225,-235,225,,67.5,M,Владимир Беляхин,No,Single-ply,,,,,,,,,,B,225,1
Sergey Chugurov,Open,1993,74,200,215,-232.5,215,,75,M,Сергей Чугуров,No,Single-ply,,,,,,,,,,B,215,1
Ignat Eseniyazov,Open,1988,73.5,145,150,157.5,157.5,,75,M,Игнат Эсениязов,No,Single-ply,,,,,,,,,,B,157.5,3
Ilya Kokorev,Open,1973,78.3,190,-200,-205,190,,82.5,M,Илья Кокорев,No,Single-ply,,,,,,,,,,B,190,1
Ivan Semenikhin,Open,1991,86.5,237.5,252.5,262.5,262.5,,90,M,Иван Семенихин,No,Single-ply,,,,,,,,,,B,262.5,2
Pavel Silushin,Open,1989,83.3,220,240,-250,240,,90,M,Павел Силушин,No,Single-ply,,,,,,,,,,B,240,3
Sergey Tesaruk,Open,1984,98.9,245,-255,-255,245,,100,M,Сергей Тесарук,No,Single-ply,,,,,,,,,,B,245,1
Dmitriy Konin,Masters 40-44,1975,98,-245,-245,245,245,,100,M,Дмитрий Конин,No,Single-ply,,,,,,,,,,B,245,1
Nikolay Alyshev,Open,1985,108.9,-310,310,-325,310,,110,M,Николай Алышев,No,Single-ply,,,,,,,,,,B,310,1
Anton Begalko,Open,1986,120.7,355,367.5,-375,367.5,,125,M,Антон Бегалко,No,Single-ply,,,,,,,,,,B,367.5,1
Oleg Mordvintsev,Open,1973,114.7,225,-235,235,235,,125,M,Олег Мордвинцев,No,Single-ply,,,,,,,,,,B,235,2
Oleg Mordvintsev,Masters 45-49,1973,114.7,225,-235,235,235,,125,M,Олег Мордвинцев,No,Single-ply,,,,,,,,,,B,235,1
Rankyn Freyded,Masters 40-44,1975,145.6,220,,,220,,140+,M,,No,Single-ply,,,,,,,,,,B,220,1
Polina Penkova,Teen,2002,62.5,85,90,95,95,,67.5,F,Полина Пенькова,Yes,Single-ply,,,,,,,,,,B,95,1
Polina Penkova,Open,2002,62.5,85,90,95,95,,67.5,F,Полина Пенькова,Yes,Single-ply,,,,,,,,,,B,95,1
Viktor Usov,Open,1989,64.6,120,135,,135,,67.5,M,Виктор Усов,Yes,Single-ply,,,,,,,,,,B,135,2
Aleksey Karlov,Open,1992,74.2,175,-180,-180,175,,75,M,Алексей Карлов,Yes,Single-ply,,,,,,,,,,B,175,2
Anton Sosunov,Open,1980,81.9,165,-170,170,170,,82.5,M,Антон Сосунов,Yes,Single-ply,,,,,,,,,,B,170,2
Vladimir Konchakov,Open,1973,89.7,277.5,,,277.5,,90,M,Владимир Кончаков,Yes,Single-ply,,,,,,,,,,B,277.5,1
Vladimir Konchakov,Masters 45-49,1973,89.7,250,265,277.5,277.5,,90,M,Владимир Кончаков,Yes,Single-ply,,,,,,,,,,B,277.5,1
Evgeniy Sokolov,Open,1984,97.2,215,-225,,215,,100,M,Евгений Соколов,Yes,Single-ply,,,,,,,,,,B,215,2
Mikhail Litovskiy,Open,1993,96.8,175,187.5,-192.5,187.5,,100,M,Михаил Литовский,Yes,Single-ply,,,,,,,,,,B,187.5,3
Artur Cheremisin,Open,1989,102.1,-250,250,-262.5,250,,110,M,Артур Черемисин,Yes,Single-ply,,,,,,,,,,B,250,2
Olga Lazurenko,Open,1971,62.4,130,145,-150,145,,67.5,F,Ольга Лазуренко,No,Unlimited,,,,,,,,,,B,145,1
Elena Prokopova,Masters 50-54,1966,67,130,142.5,145,145,,67.5,F,Елена Прокопова,No,Unlimited,,,,,,,,,,B,145,1
Oleg Atamanov,Juniors 20-23,1994,64.5,190,200,-210,200,,67.5,M,Олег Атаманов,No,Unlimited,,,,,,,,,,B,200,1
Maksim Grekov,Open,1985,74.7,250,260,-270,260,,75,M,Максим Греков,No,Unlimited,,,,,,,,,,B,260,2
Ruslan Rukavishnikov,Juniors 20-23,1994,79.8,-190,190,205,205,-222.5,82.5,M,Руслан Рукавишников,No,Unlimited,,,,,,,,,,B,205,1
Ivan Mochalov,Open,1986,80.5,190,-205,205,205,,82.5,M,Иван Мочалов,No,Unlimited,,,,,,,,,,B,205,5
Ivan Semenikhin,Open,1991,86.5,260,275,285,285,293,90,M,Иван Семенихин,No,Unlimited,,,,,,,,,,B,285,1
Vladislav Dumchev,Juniors 20-23,1996,94.6,235,245,-252.5,245,,100,M,Владислав Думчев,No,Unlimited,,,,,,,,,,B,245,1
Oleg Smirnov,Open,1986,98,-300,300.5,-302.5,300.5,,100,M,Олег Смирнов,No,Unlimited,,,,,,,,,,B,300.5,2
Aleksandr Borschev,Open,1986,98.6,290,-305,-312.5,290,,100,M,Александр Борщев,No,Unlimited,,,,,,,,,,B,290,4
Sergey Bushev,Open,1986,99.8,235,245,-250,245,,100,M,Сергей Бушев,No,Unlimited,,,,,,,,,,B,245,5
Aleksandr Bazanov,Juniors 20-23,1997,109.3,230,250,270,270,,110,M,Александр Базанов,No,Unlimited,,,,,,,,,,B,270,1
Igor Radchenko,Open,1982,107.6,332.5,-342.5,-345,332.5,,110,M,Игорь Радченко,No,Unlimited,,,,,,,,,,B,332.5,2
Aleksey Sirosh,Open,1983,110,287.5,302.5,-310,302.5,,110,M,,No,Unlimited,,,,,,,,,,B,302.5,3
Aleksandr Piskarev,Open,1985,104.4,300,-310,-310,300,,110,M,Александр Пискарев,No,Unlimited,,,,,,,,,,B,300,4
Denis Puzyrev,Open,1974,107.5,212.5,230,240,240,,110,M,Денис Пузырев,No,Unlimited,,,,,,,,,,B,240,5
Sergey Muratov,Open,1982,104.6,-215,215,-240,215,,110,M,Сергей Муратов,No,Unlimited,,,,,,,,,,B,215,6
Magomedamin Israpilov,Masters 40-44,1975,107.3,220,250,262.5,262.5,270,110,M,Магомедамин Исрапилов,No,Unlimited,,,,,,,,,,B,262.5,1
Denis Puzyrev,Masters 40-44,1974,107.5,212.5,230,240,240,,110,M,Денис Пузырев,No,Unlimited,,,,,,,,,,B,240,4
Roman Pavlenko,Masters 40-44,1974,108.4,-210,210,-230,210,,110,M,Роман Павленко,No,Unlimited,,,,,,,,,,B,210,5
Igor Kurotchenko,Masters 55-59,1962,109.4,-210,210,-217.5,210,,110,M,Игорь Куротченко,No,Unlimited,,,,,,,,,,B,210,1
Roman Zalutskiy,Open,1979,123.2,345,355,-365,355,,125,M,Роман Залуцкий,No,Unlimited,,,,,,,,,,B,355,2
Oleg Bunin,Open,1979,121,-290,-290,290,290,,125,M,Олег Бунин,No,Unlimited,,,,,,,,,,B,290,4
Vladislav Emelyanov,Open,1973,117.9,225,240,-250,240,,125,M,Владислав Емельянов,No,Unlimited,,,,,,,,,,B,240,6
Vladislav Emelyanov,Masters 40-44,1973,117.9,225,240,-250,240,,125,M,Владислав Емельянов,No,Unlimited,,,,,,,,,,B,240,2
Sergey Pleshenkov,Masters 40-44,1974,136.3,-250,-250,250,250,,140,M,Сергей Плешенков,No,Unlimited,,,,,,,,,,B,250,2
Rankyn Freyded,Masters 40-44,1975,145.6,220,260,280,280,,140+,M,,No,Unlimited,,,,,,,,,,B,280,1
Elena Shushura,Masters 40-44,1976,68.3,-100,100,-115,100,,75,F,Елена Шушура,Yes,Unlimited,,,,,,,,,,B,100,1
Egor Kuzichev,Open,1995,67,-190,-190,-190,,,67.5,M,Егор Кузичев,Yes,Unlimited,,,,,,,,,,B,,DQ
Ilya Varshavskiy,Open,1991,74.9,255,265,-270,265,,75,M,Илья Варшавский,Yes,Unlimited,,,,,,,,,,B,265,1
Rinat Khuzin,Masters 45-49,1969,73.65,190,200,212.5,212.5,-220,75,M,Ринат Хузин,Yes,Unlimited,,,,,,,,,,B,212.5,1
Sergey Sidorovskiy,Masters 45-49,1971,74.65,172.5,182.5,-190,182.5,,75,M,Сергей Сидоровский,Yes,Unlimited,,,,,,,,,,B,182.5,2
Oleg Vinokurov,Masters 50-54,1966,73.9,145,150,155,155,,75,M,Олег Винокуров,Yes,Unlimited,,,,,,,,,,B,155,1
Mikhail Kiselev,Open,1992,81.9,220,-230,-230,220,,82.5,M,Михаил Киселев,Yes,Unlimited,,,,,,,,,,B,220,3
Sergey Minashkin,Open,1985,81.3,205,212.5,-232.5,212.5,,82.5,M,Сергей Минашкин,Yes,Unlimited,,,,,,,,,,B,212.5,4
Denis Chetyrkin,Open,1986,80.9,175,-190,190,190,,82.5,M,Денис Четыркин,Yes,Unlimited,,,,,,,,,,B,190,6
Kirill Sukharev,Open,1993,89,220,235,-247.5,235,,90,M,Кирилл Сухарев,Yes,Unlimited,,,,,,,,,,B,235,2
Dmitriy Borodikhin,Open,1987,87,215,230,-240,230,,90,M,Дмитрий Бородихин,Yes,Unlimited,,,,,,,,,,B,230,3
Andrey Sukharev,Open,1974,97.9,285,292.5,-300,292.5,,100,M,Андрей Сухарев,Yes,Unlimited,,,,,,,,,,B,292.5,3
Mikhail Yarlykov,Open,1989,99.9,190,-200,-202.5,190,,100,M,Михаил Ярлыков,Yes,Unlimited,,,,,,,,,,B,190,6
Anton Dobrovolskiy,Open,1984,96.5,180,-190,-200,180,,100,M,Антон Добровольский,Yes,Unlimited,,,,,,,,,,B,180,7
Pavel Panyushin,Open,1989,95,-190,-200,-200,,,100,M,Павел Панюшин,Yes,Unlimited,,,,,,,,,,B,,DQ
Andrey Sukharev,Masters 40-44,1974,97.9,285,292.5,-300,292.5,,100,M,Андрей Сухарев,Yes,Unlimited,,,,,,,,,,B,292.5,1
Sergey Volkov,Masters 40-44,1973,99.2,230,-240,240,240,,100,M,Сергей Волков,Yes,Unlimited,,,,,,,,,,B,240,2
Magomedamin Israpilov,Masters 40-44,1975,107.3,220,250,262.5,262.5,270,110,M,Магомедамин Исрапилов,Yes,Unlimited,,,,,,,,,,B,262.5,2
Nikolay Sorokin,Masters 40-44,1976,107.3,240,250,260,260,,110,M,Николай Сорокин,Yes,Unlimited,,,,,,,,,,B,260,3
Igor Kurotchenko,Masters 55-59,1962,109.4,-210,210,-217.5,210,,110,M,Игорь Куротченко,Yes,Unlimited,,,,,,,,,,B,210,2
Viktor Pavlov,Open,1988,119,260,280,-300,280,,125,M,Виктор Павлов,Yes,Unlimited,,,,,,,,,,B,280,5
Roman Marachev,Open,1978,136.8,280,292.5,-300,292.5,,140,M,Роман Марачев,Yes,Unlimited,,,,,,,,,,B,292.5,1
Viktor Kotov,Open,1989,128.5,235,250,-270,250,,140,M,Виктор Котов,Yes,Unlimited,,,,,,,,,,B,250,2
Roman Marachev,Masters 40-44,1978,136.8,280,292.5,-300,292.5,,140,M,Роман Марачев,Yes,Unlimited,,,,,,,,,,B,292.5,1
Sergey Koshkin,Open,1971,81.6,-290,300,310,310,320,82.5,M,Сергей Кошкин,No,Unlimited,,,,,,,,,,B,310,1
Ivan Poryadin,Open,1982,96.2,290,310,320,320,,100,M,Иван Порядин,No,Unlimited,,,,,,,,,,B,320,1
Oleg Smirnov,Open,1986,98,-327.5,-327.5,-327.5,,,100,M,Олег Смирнов,No,Unlimited,,,,,,,,,,B,,DQ
Emin Galib Ogly Mamedov,Open,1974,109.1,-370,370,400,400,,110,M,Емин Галиб Оглы Мамедов,No,Unlimited,,,,,,,,,,B,400,1
Aleksey Melnikov,Open,1987,100.6,-325,-325,,,,110,M,Алексей Мельников,No,Unlimited,,,,,,,,,,B,,DQ
Nikolay Emelyanov,Open,1979,118.3,370,385,-400,385,,125,M,Николай Емельянов,No,Unlimited,,,,,,,,,,B,385,1
Vitaliy Seleznev,Open,1987,115.8,345,-365,-372.5,345,,125,M,,No,Unlimited,,,,,,,,,,B,345,3
Viktor Fursov,Masters 40-44,1974,114.3,325,-335,-335,325,,125,M,Виктор Фурсов,No,Unlimited,,,,,,,,,,B,325,1
Andrey Aksenov,Open,1992,144.1,360,-375,-375,360,,140+,M,Андрей Аксенов,No,Unlimited,,,,,,,,,,B,360,1
Valeriy Volkov,Masters 45-49,1968,98.6,282.5,,,282.5,,100,M,Валерий Волков,Yes,Unlimited,,,,,,,,,,B,282.5,1
Oksana Kuznetsova,Open,1990,58.2,,,,,,60,F,Оксана Кузнецова,No,Raw,120,125,132.5,132.5,,,,,,S,132.5,1
Magomedamin Israpilov,Masters 40-44,1975,107.3,,,,,,110,M,Магомедамин Исрапилов,No,Raw,200,220,,220,,,,,,S,220,1
Kristina Savina,Open,1990,43.5,,,,,,44,F,Кристина Савина,Yes,Raw,80,-87.5,-87.5,80,,,,,,S,80,1
Ekaterina Ivanova,Teen,1998,54.6,,,,,,56,F,Екатерина Иванова,Yes,Raw,90,105,-125,105,,,,,,S,105,1
Kristina Nikiforova,Teen,2002,58.9,,,,,,60,F,Кристина Никифорова,Yes,Raw,90,-97.5,-102.5,90,,,,,,S,90,1
Evgeniy Grishin,Open,1966,89.3,,,,,,90,M,Евгений Гришин,Yes,Raw,-112.5,-112.5,112.5,112.5,,,,,,S,112.5,1
Evgeniy Grishin,Masters 50-54,1966,89.3,,,,,,90,M,Евгений Гришин,Yes,Raw,-112.5,-112.5,112.5,112.5,,,,,,S,112.5,1
Ilya Salvadov,Juniors 20-23,1996,89.9,,,,,,90,M,Илья Сальвадов,No,Wraps,250,-262.5,262.5,262.5,,,,,,S,262.5,1
Ivan Kiselev,Masters 55-59,1961,89.1,,,,,,90,M,Иван Киселев,No,Wraps,170,-180,180,180,,,,,,S,180,1
Yusuf Akhmedov,Open,1984,96.7,,,,,,100,M,,No,Wraps,230,-237.5,240,240,,,,,,S,240,1
Magomedamin Israpilov,Masters 40-44,1975,107.3,,,,,,110,M,Магомедамин Исрапилов,No,Wraps,210,230,,230,,,,,,S,230,1
Andrey Zolotarenok,Open,1978,111.4,,,,,,125,M,Андрей Золотаренок,No,Wraps,255,-272.5,272.5,272.5,,,,,,S,272.5,1
Mohamed Bouafia,Open,1976,129.6,,,,,,140,M,,No,Wraps,-360,-360,360,360,,,,,,S,360,1
Ammar Abdelgani,Open,1981,129.9,,,,,,140,M,,No,Wraps,300,320,-322.5,320,,,,,,S,320,2
Mohamed Bouafia,Masters 40-44,1976,129.6,,,,,,140,M,,No,Wraps,-360,-360,360,360,,,,,,S,360,1
Nikita Mizonov,Teen,1999,74.4,,,,,,75,M,Никита Мизонов,Yes,Wraps,172.5,-182.5,,172.5,,,,,,S,172.5,1
Egor Selikhov,Open,1997,72.7,,,,,,75,M,Егор Селихов,Yes,Wraps,270,-280,,270,,,,,,S,270,1
Ilya Salvadov,Juniors 20-23,1996,89.9,,,,,,90,M,Илья Сальвадов,Yes,Wraps,250,-262.5,262.5,262.5,,,,,,S,,DQ
Andrey Simkin,Open,1983,89.6,,,,,,90,M,Андрей Симкин,Yes,Wraps,-210,210,230,230,,,,,,S,230,1
Sabina Akhmetova,Open,1994,59.7,,,,,,60,F,Сабина Ахметова,Yes,Single-ply,-200,200,-212.5,200,,,,,,S,200,1
Roman Durnov,Open,1986,74.9,,,,,,75,M,Роман Дурнов,Yes,Single-ply,250,-280,,250,,,,,,S,250,1
Stanislav Pryakhin,Masters 40-44,1975,82.5,,,,,,82.5,M,Станислав Пряхин,No,Unlimited,,,,,230,260,280,280,,D,280,1
Maksim Derezhovskiy,Open,1984,99.3,,,,,,100,M,Максим Дережовский,No,Unlimited,,,,,285,-301,-301,285,,D,285,1
Rankyn Freyded,Masters 40-44,1975,145.6,,,,,,140+,M,,No,Unlimited,,,,,220,-260,270,270,,D,270,1
Natalya Bogacheva,Open,1985,47.2,,,,,,48,F,Наталья Богачева,No,Raw,,,,,115,125,-128,125,,D,125,1
Alesya Vorozheykina,Juniors 20-23,1996,51.4,,,,,,52,F,Алеся Ворожейкина,No,Raw,,,,,60,-65,65,65,,D,65,1
Oksana Kuznetsova,Open,1990,58.2,,,,,,60,F,Оксана Кузнецова,No,Raw,,,,,130,142.5,150,150,,D,150,1
Elena Pimenova,Open,1984,73.5,,,,,,75,F,Елена Пименова,No,Raw,,,,,150,160,-170,160,,D,160,1
Aleksey Ezhov,Juniors 20-23,1998,50,,,,,,52,M,Алексей Ежов,No,Raw,,,,,115,120,125,125,,D,125,1
Aleksey Kashevarov,Teen,1998,59.7,,,,,,60,M,Алексей Кашеваров,No,Raw,,,,,125,140,150,150,,D,150,1
Aleksandr Pikatov,Teen,1999,66.4,,,,,,67.5,M,Александр Пикатов,No,Raw,,,,,-150,-150,-150,,,D,,DQ
Yuriy Shakun,Teen,2000,72.9,,,,,,75,M,,No,Raw,,,,,160,-180,180,180,,D,180,2
Gleb Nazarenko,Teen,2003,73.1,,,,,,75,M,Глеб Назаренко,No,Raw,,,,,60,70,80,80,,D,80,3
Pavel Bagretsov,Teen,1999,79.8,,,,,,82.5,M,Павел Багрецов,No,Raw,,,,,200,210,220,220,,D,220,1
Nacim Ighalloune,Open,1993,82.2,,,,,,82.5,M,,No,Raw,,,,,220,235,245,245,,D,245,2
Ruslan Zinnatov,Open,1986,79.8,,,,,,82.5,M,Руслан Зиннатов,No,Raw,,,,,205,212.5,-217.5,212.5,,D,212.5,7
Aleksandr Likholai,Masters 75-79,1939,75.9,,,,,,82.5,M,Александр Лихолай,No,Raw,,,,,-110,115,-120,115,,D,115,1
Maksim Nazarov,Teen,2005,83.7,,,,,,90,M,Максим Назаров,No,Raw,,,,,90,102.5,-110,102.5,,D,102.5,2
Ilya Trishkin,Juniors 20-23,1996,88.5,,,,,,90,M,Илья Тришкин,No,Raw,,,,,260,275,-280,275,,D,275,1
Ilya Fedorov,Open,1992,89.3,,,,,,90,M,Илья Фёдоров,No,Raw,,,,,340,365,-370,365,,D,365,1
Aleksey Schekunov,Open,1984,87.1,,,,,,90,M,Алексей Щекунов,No,Raw,,,,,250,260,270,270,,D,270,3
Georgii Taranukhin,Masters 50-54,1968,88.4,,,,,,90,M,Георгий Таранухин,No,Raw,,,,,245,255,,255,,D,255,1
Aleksandr Evdoshenko,Open,1985,98.6,,,,,,100,M,Александр Евдошенко,No,Raw,,,,,290,305,-312.5,305,,D,305,1
Vitaliy Zheludev,Open,1986,91.3,,,,,,100,M,Виталий Желудев,No,Raw,,,,,300,-312.5,-312.5,300,,D,300,2
Aleksandr Matskevich,Open,1988,96.3,,,,,,100,M,Александр Мацкевич,No,Raw,,,,,-275,280,290,290,,D,290,3
Aleksandr Rzhanovskiy,Open,1994,92.4,,,,,,100,M,Александр Ржановский,No,Raw,,,,,272.5,280,,280,,D,280,5
Vladimir Brusov,Open,1983,96,,,,,,100,M,Владимир Брусов,No,Raw,,,,,245,260,272.5,272.5,,D,272.5,6
Ilya Ushkov,Masters 40-44,1976,99,,,,,,100,M,Илья Ушков,No,Raw,,,,,275,282.5,-295,282.5,,D,282.5,1
Eldar Salakhetdinov,Teen,1998,107,,,,,,110,M,Эльдар Салахетдинов,No,Raw,,,,,280,290,-300,290,,D,290,1
Oleg Vinogradov,Open,1990,103,,,,,,110,M,Олег Виноградов,No,Raw,,,,,335,-350,-350,335,,D,335,1
Andrey Burachkovskiy,Open,1984,108.8,,,,,,110,M,Андрей Бурачковский,No,Raw,,,,,290,300,-310,300,,D,300,2
Magomedamin Israpilov,Masters 40-44,1975,107.3,,,,,,110,M,Магомедамин Исрапилов,No,Raw,,,,,-180,180,-200,180,,D,180,1
Valeriy Sytnikov,Masters 45-49,1970,108.3,,,,,,110,M,Валерий Сытников,No,Raw,,,,,265,290,295,295,,D,295,1
Vladimir Marchenko,Open,1984,122.7,,,,,,125,M,Владимир Марченко,No,Raw,,,,,360,-385,-385,360,,D,360,1
Ivan Chesnokov,Open,1990,119,,,,,,125,M,Иван Чесноков,No,Raw,,,,,325,-340,,325,,D,325,2
Mohamed Bouafia,Open,1976,129.6,,,,,,140,M,,No,Raw,,,,,-340,-340,340,340,,D,340,1
Ammar Abdelgani,Open,1981,129.9,,,,,,140,M,,No,Raw,,,,,-260,260,,260,,D,260,2
Oleg Livshits,Masters 40-44,1973,134,,,,,,140,M,Олег Лившиц,No,Raw,,,,,345,-360,,345,,D,345,1
Mohamed Bouafia,Masters 40-44,1976,129.6,,,,,,140,M,,No,Raw,,,,,-340,-340,340,340,,D,340,2
Nina Russu,Open,1982,54.8,,,,,,56,F,Нина Руссу,Yes,Raw,,,,,120,-132.5,-132.5,120,,D,120,1
Yuliya Kruss,Open,1988,54.9,,,,,,56,F,Юлия Крусс,Yes,Raw,,,,,102.5,112.5,117.5,117.5,,D,117.5,2
Svetlana Cherkasova,Open,1989,58,,,,,,60,F,Светлана Черкасова,Yes,Raw,,,,,112.5,-120,120,120,,D,120,2
Anna Schekina,Open,1989,59.3,,,,,,60,F,Анна Щекина,Yes,Raw,,,,,110,-115,115,115,,D,115,3
Mariya Nikitochkina,Open,1989,56.5,,,,,,60,F,Мария Никиточкина,Yes,Raw,,,,,80,90,-100,90,,D,90,4
Natalya Shapovalova,Juniors 20-23,1996,74.9,,,,,,75,F,Наталья Шаповалова,Yes,Raw,,,,,135,142.5,147.5,147.5,,D,147.5,1
Alina Trebunskikh,Open,1989,78.5,,,,,,82.5,F,Алина Требунских,Yes,Raw,,,,,105,115,-120,115,,D,115,1
Vladimir Prokudin,Teen,2004,54.8,,,,,,56,M,Владимир Прокудин,Yes,Raw,,,,,-110,-120,120,120,,D,120,1
Danil Rud,Teen,2001,66.5,,,,,,67.5,M,Даниил Рудь,Yes,Raw,,,,,170,-185,-185,170,,D,170,1
Aldair Aliev,Open,1992,66.2,,,,,,67.5,M,Альдаир Алиев,Yes,Raw,,,,,200,-212.5,-212.5,200,,D,200,1
Aldair Aliev,Open,1992,66.2,,,,,,67.5,M,Альдаир Алиев,Yes,Raw,,,,,185,190,200,200,,D,200,2
Nikita Mizonov,Teen,1999,74.4,,,,,,75,M,Никита Мизонов,Yes,Raw,,,,,170,182.5,-187.5,182.5,,D,182.5,1
Denis Vakhrushev,Juniors 20-23,1997,74.9,,,,,,75,M,Денис Вахрушев,Yes,Raw,,,,,-160,160,182.5,182.5,,D,182.5,1
Timur Baymukhanov,Open,1993,74.9,,,,,,75,M,Тимур Баймуханов,Yes,Raw,,,,,210,230,-250,230,,D,230,1
Dalgat Gadzhiakhmedov,Open,1987,72.1,,,,,,75,M,Далгат Гаджиахмедов,Yes,Raw,,,,,205,-215,-215,205,,D,205,2
Mikhail Kiselev,Open,1992,81.9,,,,,,82.5,M,Михаил Киселев,Yes,Raw,,,,,260,272.5,282.5,282.5,-283,D,282.5,1
Evgeniy Smirnov,Open,1990,78.1,,,,,,82.5,M,Евгений Смирнов,Yes,Raw,,,,,-240,240,-250,240,,D,240,3
Igor Doronin,Open,1991,77.9,,,,,,82.5,M,Игорь Доронин,Yes,Raw,,,,,230,-240,-240,230,,D,230,4
Nikolay Zhiltsov,Open,1987,79.7,,,,,,82.5,M,Николай Жильцов,Yes,Raw,,,,,210,220,-232.5,220,,D,220,5
Andrey Kireev,Open,1992,80.5,,,,,,82.5,M,Андрей Киреев,Yes,Raw,,,,,200,-220,220,220,,D,220,6
Aleksandr Pyanzin,Teen,1999,89.8,,,,,,90,M,Александр Пьянзин,Yes,Raw,,,,,202.5,215,-230,215,,D,215,1
Semen Sokulskiy,Juniors 20-23,1997,87,,,,,,90,M,Семен Сокульский,Yes,Raw,,,,,235,245,-250,245,,D,245,2
Aleksey Boyarintsev,Open,1989,88.2,,,,,,90,M,Алексей Бояринцев,Yes,Raw,,,,,275,-290,-290,275,,D,275,2
Aleksandr Panteleev,Open,1991,90,,,,,,90,M,Александр Пантелеев,Yes,Raw,,,,,200,215,230,230,,D,230,4
Aleksey Sheykin,Open,1988,89.3,,,,,,90,M,,Yes,Raw,,,,,280,290,-300,290,,D,,DQ
Evgeniy Grishin,Masters 50-54,1966,89.3,,,,,,90,M,Евгений Гришин,Yes,Raw,,,,,125,132.5,140,140,,D,140,1
Nikita Nor,Juniors 20-23,1996,99.1,,,,,,100,M,Никита Нор,Yes,Raw,,,,,215,230,245,245,,D,245,1
Dmitriy Pavlovskiy,Open,1988,99.3,,,,,,100,M,Дмитрий Павловский,Yes,Raw,,,,,285,-295,-295,285,,D,285,4
Sergey Durnadin,Open,1974,99,,,,,,100,M,Сергей Дурандин,Yes,Raw,,,,,255,-265,-265,255,,D,255,7
Aleksey Gerasimov,Open,1985,98.3,,,,,,100,M,Алексей Герасимов,Yes,Raw,,,,,210,220,-225,220,,D,220,8
Sergey Durnadin,Masters 40-44,1974,99,,,,,,100,M,Сергей Дурандин,Yes,Raw,,,,,255,-265,-265,255,,D,255,2
Sergey Ukhanov,Masters 40-44,1974,98.3,,,,,,100,M,Сергей Уханов,Yes,Raw,,,,,230,245,-255,245,,D,245,3
Anton Skovpen,Juniors 20-23,1995,102.2,,,,,,110,M,Антон Сковпень,Yes,Raw,,,,,220,240,247.5,247.5,,D,247.5,1
Aleksandr Krymskiy,Juniors 20-23,1995,104.7,,,,,,110,M,Александр Крымский,Yes,Raw,,,,,180,215,-230,215,,D,215,2
Sergey Gusev,Open,1988,106.2,,,,,,110,M,Сергей Гусев,Yes,Raw,,,,,-255,255,-282.5,255,,D,255,3
Ruslan Novikov,Open,1988,102.4,,,,,,110,M,Руслан Новиков,Yes,Raw,,,,,240,250,-260,250,,D,250,4
Magomedamin Israpilov,Masters 40-44,1975,107.3,,,,,,110,M,Магомедамин Исрапилов,Yes,Raw,,,,,-180,180,-200,180,,D,180,2
Ion Parshikov,Juniors 20-23,1995,114.1,,,,,,125,M,,Yes,Raw,,,,,230,-240,-240,230,,D,230,1
Stanislav Kulikov,Open,1978,96.6,,,,,,100,M,Станислав Куликов,No,Single-ply,,,,,300,320,,320,,D,320,1
Nikolay Pogorelyy,Open,1993,98.4,,,,,,100,M,Николай Погорелый,No,Single-ply,,,,,300,,,300,,D,300,2
Andrey Sizov,Masters 50-54,1968,96.7,,,,,,100,M,Андрей Сизов,No,Single-ply,,,,,300,310,-320,310,,D,310,1
Natalya Bogacheva,Open,1985,47.2,40,42.5,-45,42.5,,48,F,Наталья Богачева,No,Raw,77.5,80,82.5,82.5,115,125,-128,125,,SBD,250,1
Nika Velial,Open,1992,56,72.5,77.5,-82.5,77.5,,56,F,Ника Велиал,No,Raw,95,-102.5,-102.5,95,105,112.5,117.5,117.5,,SBD,290,1
Oksana Kuznetsova,Open,1990,58.2,70,75,82.5,82.5,,60,F,Оксана Кузнецова,No,Raw,120,125,132.5,132.5,130,142.5,150,150,,SBD,365,1
Viktoriya Doga,Open,1982,74.2,102.5,107.5,110,110,,75,F,Виктория Дога,No,Raw,140,147.5,-155,147.5,172.5,187.5,195,195,,SBD,452.5,1
Anastasiya Marchenko,Open,1988,77.4,95,-105,-105,95,,82.5,F,Анастасія Марченко,No,Raw,170,180,190,190,170,180,-185,180,,SBD,465,1
Valeriya Sivakova,Open,1988,81.3,60,67.5,-70,67.5,,82.5,F,Валерия Сивакова,No,Raw,125,132.5,137.5,137.5,135,142.5,150,150,,SBD,355,2
Aleksandr Korolev,Open,1992,66.9,135,137.5,140,140,,67.5,M,Александр Королев,No,Raw,-100,-100,100,100,150,160,170,170,,SBD,410,2
Vladislav Stroev,Juniors 20-23,1995,82,130,-137.5,,130,,82.5,M,Владислав Строев,No,Raw,210,222.5,227.5,227.5,240,260,-272.5,260,,SBD,617.5,1
Pavel Zubkov,Open,1985,82.3,147.5,157.5,-160,157.5,,82.5,M,Павел Зубков,No,Raw,220,235,242.5,242.5,285,300,307.5,307.5,,SBD,707.5,1
Vitaliy Nikolaev,Open,1982,89,205,215,-222.5,215,,90,M,Виталий Николаев,No,Raw,260.5,-275,280,280,300,-320,,300,,SBD,795,1
Aleksey Sheykin,Open,1988,89.3,180,-185,-185,180,,90,M,,No,Raw,240,-250,-250,240,280,290,-300,290,,SBD,710,2
Aleksey Schekunov,Open,1984,87.1,-170,170,177.5,177.5,,90,M,Алексей Щекунов,No,Raw,210,220,-230,220,250,260,270,270,,SBD,667.5,4
Stanislav Belov,Open,1990,89.6,155,-160,-160,155,,90,M,Станислав Белов,No,Raw,240,-252.5,,240,245,-250,-250,245,,SBD,640,7
Ilya Garkin,Open,1990,88.5,165,175,180,180,,90,M,Илья Гарькин,No,Raw,205,-210,-210,205,220,230,-252.5,230,,SBD,615,8
Konstantin Petrenko,Open,1994,85.2,120,130,140,140,,90,M,Константин Петренко,No,Raw,-200,-200,200,200,200,220,240,240,,SBD,580,9
Petr Samko,Open,1987,88.4,130,-135,-135,130,,90,M,Петр Самко,No,Raw,170,185,-192.5,185,210,220,,220,,SBD,535,12
Aleksey Slabun,Masters 40-44,1976,88.8,-160,-160,-160,,,90,M,Алексей Слабун,No,Raw,-205,205,-210,205,,,,,,SBD,,DQ
Andrey Bogatchenko,Juniors 20-23,1994,99.2,200,206,-211,206,,100,M,Андрей Богатченко,No,Raw,276,282.5,-290,282.5,-310,310,-317.5,310,,SBD,798.5,1
Sergey Popov,Juniors 20-23,1995,99.7,200,207.5,215,215,,100,M,Сергей Попов,No,Raw,260,270,280,280,250,260,-280,260,,SBD,755,2
Andrey Bogatchenko,Open,1994,99.2,200,206,-211,206,,100,M,Андрей Богатченко,No,Raw,276,282.5,-290,282.5,-310,310,-317.5,310,,SBD,798.5,1
Sergey Popov,Open,1995,99.7,200,207.5,215,215,,100,M,Сергей Попов,No,Raw,260,270,280,280,250,260,-280,260,,SBD,755,2
Dmitriy Berezhnoy,Open,1985,97.9,140,150,-160,150,,100,M,Дмитрий Бережной,No,Raw,190,210,-220,210,240,255,265,265,,SBD,625,5
Andrey Makarov,Juniors 20-23,1994,103.6,130,145,160,160,,110,M,Андрей Макаров,No,Raw,-240,240,-260,240,240,260,-270,260,,SBD,660,1
Kirill Kovalenko,Open,1992,108.3,190,200,205,205,-212.5,110,M,Кирилл Коваленко,No,Raw,280,295,305,305,297.5,310,320,320,-325,SBD,830,1
Aleksandr Sharov,Open,1983,108.4,190,205,210,210,,110,M,Александр Шаров,No,Raw,250,270,-280,270,280,300,310,310,,SBD,790,2
Andrey Makarov,Open,1994,103.6,130,145,160,160,,110,M,Андрей Макаров,No,Raw,-240,240,-260,240,240,260,-270,260,,SBD,660,7
Magomedamin Israpilov,Masters 40-44,1975,107.3,160,170,,170,,110,M,Магомедамин Исрапилов,No,Raw,200,220,,220,-180,180,-200,180,,SBD,570,1
Aleksey Fedorenko,Juniors 20-23,1996,119.3,175,-182.5,182.5,182.5,,125,M,Алексей Федоренко,No,Raw,210,225,-240,225,260,275,290,290,,SBD,697.5,1
Igor Sharapov,Masters 45-49,1971,115,185,-195,-195,185,,125,M,Игорь Шарапов,No,Raw,245,260,-265,260,265,275,-280,275,,SBD,720,1
Tatyana Averyanova,Open,1989,47.8,35,37.5,-40,37.5,,48,F,Татьяна Аверьянова,Yes,Raw,57.5,65,70,70,67.5,72.5,80,80,,SBD,187.5,2
Irina Zemtsova,Open,1981,50,50,55,,55,,52,F,Ирина Земцова,Yes,Raw,90,95,-100,95,107.5,-112.5,-112.5,107.5,,SBD,257.5,1
Marina Latukhina,Open,1984,55.3,57.5,-60,-60,57.5,,56,F,Марина Латухина,Yes,Raw,90,95,100,100,115,120,122.5,122.5,,SBD,280,2
Anna Derebchinskaya,Open,1982,54.3,37.5,-40,40,40,,56,F,Анна Деребчинская,Yes,Raw,72.5,77.5,82.5,82.5,95,100,-102.5,100,,SBD,222.5,3
Olga Stepanova,Open,1984,55.4,30,35,37.5,37.5,,56,F,Ольга Степанова,Yes,Raw,60,-65,-65,60,60,65,70,70,,SBD,167.5,4
Elizaveta Kanunnikova,Open,1989,55.9,32.5,35,-37.5,35,,56,F,Елизавета Канунникова,Yes,Raw,52.5,-57.5,-57.5,52.5,60,65,70,70,,SBD,157.5,5
Sofya Belskaya,Juniors 20-23,1997,57.3,-65,65,67.5,67.5,,60,F,Софья Бельская,Yes,Raw,-115,115,117.5,117.5,112.5,115,117.5,117.5,,SBD,302.5,1
Ekaterina Dudareva,Open,1993,58.7,80,85,-87.5,85,,60,F,Екатерина Дударева,Yes,Raw,-105,105,-110,105,130,-140,-140,130,,SBD,320,2
Ekaterina Popova,Open,1988,58.7,40,42.5,-45,42.5,,60,F,Екатерина Попова,Yes,Raw,-70,70,80,80,95,-100,105,105,,SBD,227.5,3
Anna Schekina,Open,1989,59.3,,,,,,60,F,Анна Щекина,Yes,Raw,-90,-92.5,-92.5,,,,,,,SBD,,DQ
Irina Panina,Open,1985,59.3,,,,,,60,F,Ирина Панина,Yes,Raw,-85,-90,-90,,,,,,,SBD,,DQ
Polina Penkova,Teen,2002,62.5,62.5,-67.5,67.5,67.5,,67.5,F,Полина Пенькова,Yes,Raw,95,102.5,-107.5,102.5,105,-112.5,112.5,112.5,,SBD,282.5,1
Natalya Mironova,Open,1974,66.7,60,65,-67.5,65,,67.5,F,Наталья Миронова,Yes,Raw,100,-110,-110,100,130,140,145,145,,SBD,310,1
Polina Penkova,Open,2002,62.5,62.5,-67.5,67.5,67.5,,67.5,F,Полина Пенькова,Yes,Raw,95,102.5,-107.5,102.5,105,-112.5,112.5,112.5,,SBD,282.5,2
Anzhelika Maltseva,Open,1983,66.1,-57.5,-57.5,57.5,57.5,,67.5,F,Анжелика Мальцева,Yes,Raw,90,-95,-95,90,-117.5,-117.5,-117.5,,,SBD,,DQ
Natalya Cherkasova,Masters 40-44,1976,66.7,60,-65,-65,60,,67.5,F,Наталья Черкасова,Yes,Raw,-115,115,120,120,130,-140,140,140,,SBD,320,1
Sergey Luchinskiy,Open,1987,59.9,-110,110,-115,110,,60,M,Сергей Лучинский,Yes,Raw,-190,195,-200,195,185,195,-205,195,,SBD,,DQ
Aldair Aliev,Open,1992,66.2,-120,125,130,130,,67.5,M,Альдаир Алиев,Yes,Raw,-130,135,142.5,142.5,185,190,200,200,,SBD,472.5,1
Andrey Sazonov,Teen,2000,72.4,90,-95,-95,90,,75,M,Андрей Сазонов,Yes,Raw,130,140,150,150,170,-180,180,180,,SBD,420,1
Evgeniy Karpov,Open,1979,72.5,137.5,142.5,-145,142.5,,75,M,Евгений Карпов,Yes,Raw,180,190,-192.5,190,190,-200,-200,190,,SBD,522.5,1
Aleksandr Situkhin,Open,1991,72.9,120,125,-130,125,,75,M,Александр Ситухин,Yes,Raw,150,155,160,160,210,-215,-215,210,,SBD,495,2
Dalgat Gadzhiakhmedov,Open,1987,72.1,110,-117.5,-117.5,110,,75,M,Далгат Гаджиахмедов,Yes,Raw,-155,155,165,165,205,-215,-215,205,,SBD,480,3
Ernest Solomka,Teen,2003,75.6,-65,65,72.5,72.5,,82.5,M,Эрнест Соломка,Yes,Raw,105,115,120,120,125,135,-150,135,,SBD,327.5,1
Mikhail Kafash,Juniors 20-23,1996,79.6,125,130,135,135,,82.5,M,Михаил Кафаш,Yes,Raw,170,180,-185,180,180,190,200,200,,SBD,515,2
Sergey Denisov,Open,1991,79.2,130,-135,-140,130,,82.5,M,Сергей Денисов,Yes,Raw,-177.5,185,-190,185,230,245,252.5,252.5,,SBD,567.5,2
Igor Doronin,Open,1991,77.9,-125,125,-130,125,,82.5,M,Игорь Доронин,Yes,Raw,190,-200,-200,190,230,-240,-240,230,,SBD,545,3
Oleg Gerasimenko,Masters 40-44,1975,81.5,102.5,-112.5,-112.5,102.5,,82.5,M,Олег Герасименко,Yes,Raw,152.5,-167.5,-167.5,152.5,170,187.5,,187.5,,SBD,442.5,1
Vladislav Fam,Teen,1999,87.3,-115,115,122.5,122.5,,90,M,Владислав Фам,Yes,Raw,175,190,-210,190,215,230,-240,230,,SBD,542.5,1
Andrey Prikhodko,Open,1983,89.7,175,185,190,190,,90,M,Андрей Приходько,Yes,Raw,225,235,-240,235,265,-270,-270,265,,SBD,690,3
Evgeniy Vladimirov,Open,1964,88.7,150,155,-160,155,,90,M,Евгений Владимиров,Yes,Raw,250,260,-270,260,245,250,252.5,252.5,,SBD,667.5,5
Dmitriy Sobtsov,Open,1991,89.3,165,175,182.5,182.5,,90,M,Дмитрий Собцов,Yes,Raw,210,225,235,235,220,237.5,-250,237.5,,SBD,655,6
Samvel Danielyan,Open,1982,89.2,135,142.5,-150,142.5,,90,M,Самвел Даниелян,Yes,Raw,200,215,-230,215,220,-240,,220,,SBD,577.5,10
Dmitriy Suprunov,Open,1989,87.3,137.5,142.5,-147.5,142.5,,90,M,Дмитрий Супрунов,Yes,Raw,180,192.5,,192.5,200,210,220,220,,SBD,555,11
Aleksey Sheykin,Open,1988,89.3,180,-185,-185,180,,90,M,,Yes,Raw,240,-250,-250,240,280,290,-300,290,,SBD,,DQ
Robert Akhmetshin,Masters 40-44,1977,87.1,115,125,132.5,132.5,,90,M,Роберт Ахметшин,Yes,Raw,170,185,192.5,192.5,210,225,-240,225,,SBD,550,1
Andrey Borisov,Masters 40-44,1974,89,95,100,102.5,102.5,,90,M,Андрей Борисов,Yes,Raw,107.5,112.5,117.5,117.5,135,140,145,145,,SBD,365,2
Arsen Akopyan,Masters 45-49,1970,89,120,130,132.5,132.5,,90,M,Арсен Акопян,Yes,Raw,170,180,-187.5,180,200,210,215,215,,SBD,527.5,1
Evgeniy Vladimirov,Masters 50-54,1964,88.7,150,155,-160,155,,90,M,Евгений Владимиров,Yes,Raw,250,260,-270,260,245,250,252.5,252.5,,SBD,667.5,1
Evgeniy Grishin,Masters 50-54,1966,89.3,85,87.5,,87.5,,90,M,Евгений Гришин,Yes,Raw,-112.5,-112.5,112.5,112.5,125,132.5,140,140,,SBD,340,2
Nikolay Zabelin,Open,1985,98.1,155,160,-165,160,,100,M,Николай Забелин,Yes,Raw,210,220,225,225,250,260,-262.5,260,,SBD,645,3
Aleksandr Gostyaev,Open,1982,95.5,-155,155,160,160,,100,M,Александр Гостяев,Yes,Raw,-210,210,215,215,-260,260,-265,260,,SBD,635,4
Andrey Andreev,Open,1979,99.5,-170,-170,170,170,,100,M,Андрей Андреев,Yes,Raw,180,190,200,200,220,235,-240,235,,SBD,605,6
Gleb Zubakov,Open,1991,98.5,135,140,-142.5,140,,100,M,Глеб Зубаков,Yes,Raw,-185,185,-195,185,242.5,-250,,242.5,,SBD,567.5,7
Mikhail Vasilevsky,Open,1991,99.2,127.5,135,137.5,137.5,,100,M,Михаил Василевский,Yes,Raw,190,200,210,210,205,220,-230,220,,SBD,567.5,8
Maksim Konakov,Open,1992,96.5,115,125,135,135,,100,M,Максим Конаков,Yes,Raw,130,145,-155,145,170,190,205,205,,SBD,485,9
Roman Tertyshnyy,Open,1987,106.6,155,162.5,170,170,,110,M,Роман Тертышный,Yes,Raw,245,260,270,270,260,270,-282.5,270,,SBD,710,3
Sergey Gusev,Open,1988,106.2,170,177.5,182.5,182.5,,110,M,Сергей Гусев,Yes,Raw,225,235,245,245,-255,255,-282.5,255,,SBD,682.5,4
Roman Klimov,Open,1981,107.4,145,152.5,157.5,157.5,,110,M,Роман Климов,Yes,Raw,207.5,220,235,235,245,262.5,277.5,277.5,,SBD,670,5
Dmitriy Samaryanov,Open,1978,109,167.5,177.5,180,180,,110,M,Дмитрий Самарянов,Yes,Raw,200,215,222.5,222.5,240,252.5,260,260,,SBD,662.5,6
Aleksey Cherepkov,Open,1988,107,160,165,-170,165,,110,M,Алексей Черепков,Yes,Raw,215,225,230,230,250,260,265,265,,SBD,660,8
Magomedamin Israpilov,Masters 40-44,1975,107.3,160,170,,170,,110,M,Магомедамин Исрапилов,Yes,Raw,200,220,,220,-180,180,-200,180,,SBD,570,2
Ion Parshikov,Juniors 20-23,1995,114.1,145,152.5,157.5,157.5,,125,M,,Yes,Raw,220,227.5,232.5,232.5,230,-240,-240,230,,SBD,620,2
Dmitriy Efimenko,Open,1990,123.8,150,157.5,-162.5,157.5,,125,M,Дмитрий Ефименко,Yes,Raw,220,-230,-230,220,260,275,-285,275,,SBD,652.5,1
Elena Astakhova,Open,1982,67.5,72.5,77.5,80,80,,67.5,F,Елена Астахова,No,Wraps,125,135,140,140,150,162.5,-170,162.5,,SBD,382.5,1
Aram Grigoryan,Open,1989,81.4,140,150,155,155,,82.5,M,Арам Григорян,No,Wraps,-230,230,-240,230,-270,270,280,280,,SBD,665,1
Vladislav Mukhin,Open,1983,82.4,150,160,165,165,,82.5,M,Владислав Мухин,No,Wraps,210,-230,240,240,-215,215,-230,215,,SBD,620,2
Ruslan Zinnatov,Open,1986,79.8,125,130,135,135,,82.5,M,Руслан Зиннатов,No,Wraps,-190,190,210,210,205,212.5,-217.5,212.5,,SBD,557.5,4
Roman Skorobogatchenko,Open,1987,87.3,170,180,190,190,,90,M,Роман Скоробогатченко,No,Wraps,-270,270,280,280,265,275,-285,275,,SBD,745,1
Evgeniy Drobotov,Open,1987,88.5,140,150,152.5,152.5,,90,M,Евгений Дроботов,No,Wraps,225,237.5,242.5,242.5,215,227.5,,227.5,,SBD,622.5,2
Stanislav Yarukov,Open,1990,89.5,145,152.5,-160,152.5,,90,M,Станислав Яруков,No,Wraps,210,222.5,,222.5,-280,,,,,SBD,,DQ
Ivan Kiselev,Masters 55-59,1961,89.1,95,100,105,105,,90,M,Иван Киселев,No,Wraps,170,-180,180,180,150,160,170,170,,SBD,455,1
Andrey Medvedev,Masters 60-64,1954,86.3,95,100,102.5,102.5,,90,M,Андрей Медведев,No,Wraps,120,127.5,132.5,132.5,132.5,142.5,152.5,152.5,,SBD,387.5,1
Evgeniy Golovachev,Teen,1999,97.4,145,152.5,-160,152.5,,100,M,Евгений Головачев,No,Wraps,210,235,-252.5,235,210,230,-250,230,,SBD,617.5,1
Igor Chayka,Juniors 20-23,1994,96.8,120,130,-140,130,,100,M,Игорь Чайка,No,Wraps,-260,260,-270,260,260,270,280,280,,SBD,670,1
Dmitriy Pavlov,Open,1991,98.8,190,200,205,205,,100,M,Дмитрий Павлов,No,Wraps,290,305,-315,305,-300,310,320,320,,SBD,830,1
Ivan Kazachkov,Open,1989,99.6,165,175,185,185,,100,M,Иван Казачков,No,Wraps,280,300,-312.5,300,280,295,305,305,,SBD,790,2
Evgeniy Klyuchnikov,Open,1990,93.6,175,192.5,-200,192.5,,100,M,Евгений Ключников,No,Wraps,280,302.5,-315,302.5,250,272.5,285,285,,SBD,780,3
Nikolay Pogorelyy,Open,1993,98.4,145,155,162.5,162.5,,100,M,Николай Погорелый,No,Wraps,240,255,270,270,265,285,300,300,,SBD,732.5,5
Roman Kroshkin,Open,1981,95.8,140,150,-157.5,150,,100,M,Роман Крошкин,No,Wraps,235,247.5,260,260,250,270,-280,270,,SBD,680,7
Evgeniy Shatlovskiy,Masters 40-44,1975,99,150,-167.5,167.5,167.5,,100,M,Евгений Шатловский,No,Wraps,210,230,-250,230,240,260,-290,260,,SBD,657.5,1
Anton Skripka,Masters 45-49,1971,94.6,140,145,150,150,,100,M,Антон Скрипка,No,Wraps,190,-210,-210,190,180,190,200,200,,SBD,540,1
Magomedamin Israpilov,Masters 40-44,1975,107.3,160,170,,170,,110,M,Магомедамин Исрапилов,No,Wraps,210,230,,230,-180,180,-200,180,,SBD,580,1
Dmitriy Verbitskiy,Open,1986,115.2,190,200,210,210,,125,M,Дмитрий Вербицкий,No,Wraps,280,-290,-290,280,290,310,315,315,,SBD,805,1
Andrey Zolotarenok,Open,1978,111.4,170,-177.5,180,180,,125,M,Андрей Золотаренок,No,Wraps,255,-272.5,272.5,272.5,240,-252.5,252.5,252.5,,SBD,705,2
Dmitriy Kasatkin,Open,1981,123.7,,,,,,125,M,Дмитрий Касаткин,No,Wraps,-270,-270,-270,,,,,,,SBD,,DQ
Mohamed Bouafia,Open,1976,129.6,-210,210,-220,210,,140,M,,No,Wraps,-360,-360,360,360,-340,-340,340,340,,SBD,910,1
Ammar Abdelgani,Open,1981,129.9,170,-180,180,180,,140,M,,No,Wraps,300,320,-322.5,320,-260,260,,260,,SBD,760,2
Mohamed Bouafia,Masters 40-44,1976,129.6,-210,210,-220,210,,140,M,,No,Wraps,-360,-360,360,360,-340,-340,340,340,,SBD,910,1
Irina Belousova,Open,1977,43.7,45,47.5,-50,47.5,,44,F,Ирина Белоусова,Yes,Wraps,100,-105,105,105,110,115,120,120,,SBD,272.5,1
Olga Kasyan,Open,1976,51.1,50,-55,55,55,,52,F,Ольга Касьян,Yes,Wraps,70,75,80,80,90,95,97.5,97.5,,SBD,232.5,1
Kristina Nikiforova,Teen,2002,58.9,40,42.5,45,45,,60,F,Кристина Никифорова,Yes,Wraps,90,-97.5,-102.5,90,82.5,87.5,-92.5,87.5,,SBD,222.5,1
Darya Sokolova,Open,1990,58.3,60,65,67.5,67.5,,60,F,Дарья Соколова,Yes,Wraps,115,120,-125,120,-115,120,-125,120,,SBD,307.5,1
Nikita Mizonov,Teen,1999,74.4,100,105,-110,105,,75,M,Никита Мизонов,Yes,Wraps,172.5,-182.5,,172.5,170,182.5,-187.5,182.5,,SBD,460,1
Egor Selikhov,Juniors 20-23,1997,72.7,120,130,-140,130,,75,M,Егор Селихов,Yes,Wraps,270,-280,,270,230,240,250,250,,SBD,650,1
Egor Selikhov,Open,1997,72.7,120,130,-140,130,,75,M,Егор Селихов,Yes,Wraps,270,-280,,270,230,240,250,250,,SBD,650,1
Pavel Romashev,Open,1989,77.5,130,140,147.5,147.5,,82.5,M,Павел Ромашев,Yes,Wraps,190,200,-215,200,190,210,-220,210,,SBD,557.5,3
Evgeniy Smirnov,Open,1990,78.1,115,-120,-120,115,,82.5,M,Евгений Смирнов,Yes,Wraps,185,195,-200,195,-240,240,-250,240,,SBD,550,5
Andrey Mikhaylov,Open,1983,89.3,135,145,-150,145,,90,M,Андрей Михайлов,Yes,Wraps,165,185,-200,185,190,205,-220,205,,SBD,535,3
Dmitriy Melsitov,Masters 40-44,1978,88,112.5,117.5,-122.5,117.5,,90,M,Дмитрий Мельситов,Yes,Wraps,-185,-190,190,190,190,200,210,210,,SBD,517.5,1
Sergey Zelyanin,Open,1987,99.5,175,182.5,187.5,187.5,,100,M,,Yes,Wraps,277.5,-290,-290,277.5,277.5,285,-292.5,285,,SBD,750,4
Ariunbaatar Sharavdorj,Open,1982,93.8,165,-172.5,,165,,100,M,,Yes,Wraps,250,-270,277.5,277.5,250,260,,260,,SBD,702.5,6
Dmitriy Ilyukhin,Open,1982,102.7,140,150,-155,150,,110,M,Дмитрий Илюхин,Yes,Wraps,180,195,205,205,200,220,230,230,,SBD,585,1
Maksim Lebedev,Open,1978,108.8,-180,-180,-180,,,110,M,Максим Лебедев,Yes,Wraps,235,240,-250,240,,,,,,SBD,,DQ
Magomedamin Israpilov,Masters 40-44,1975,107.3,160,170,,170,,110,M,Магомедамин Исрапилов,Yes,Wraps,210,230,,230,-180,180,-200,180,,SBD,580,2
Maksim Lebedev,Masters 40-44,1978,108.8,-180,-180,-180,,,110,M,Максим Лебедев,Yes,Wraps,235,240,-250,240,,,,,,SBD,,DQ
Roman Maksimov,Masters 45-49,1969,107.8,162.5,172.5,-175,172.5,,110,M,Роман Максимов,Yes,Wraps,-225,230,-242.5,230,190,210,215,215,,SBD,617.5,1
Aleksey Serik,Open,1987,136.9,140,150,160,160,,140,M,Алексей Серик,Yes,Wraps,290,307.5,315,315,252.5,265,275,275,,SBD,750,3
Oksana Kuznetsova,Open,1990,58.2,70,75,82.5,82.5,,60,F,Оксана Кузнецова,No,Raw,,,,,130,142.5,150,150,,BD,232.5,1
Gleb Nazarenko,Teen,2003,73.1,47.5,52.5,55,55,,75,M,Глеб Назаренко,No,Raw,,,,,60,70,80,80,,BD,135,1
Nacim Ighalloune,Open,1993,82.2,142.5,150,155,155,,82.5,M,,No,Raw,,,,,220,235,245,245,,BD,400,1
Viktor Burkovskiy,Open,1990,80.7,125,-135,140,140,,82.5,M,Виктор Бурковский,No,Raw,,,,,-225,225,235,235,,BD,375,2
Aleksey Sheykin,Open,1988,89.3,180,-185,-185,180,,90,M,,No,Raw,,,,,280,290,-300,290,,BD,470,1
Aleksey Schekunov,Open,1984,87.1,-170,170,177.5,177.5,,90,M,Алексей Щекунов,No,Raw,,,,,250,260,270,270,,BD,447.5,3
Magomedamin Israpilov,Masters 40-44,1975,107.3,160,170,,170,,110,M,Магомедамин Исрапилов,No,Raw,,,,,-180,180,-200,180,,BD,350,1
Mohamed Bouafia,Open,1976,129.6,-210,210,-220,210,,140,M,,No,Raw,,,,,-340,-340,340,340,,BD,550,1
Mohamed Bouafia,Masters 40-44,1976,129.6,-210,210,-220,210,,140,M,,No,Raw,,,,,-340,-340,340,340,,BD,550,1
Kirill Sukhov,Teen,2005,61.9,70,75,80,80,,67.5,M,Кирилл Сухов,Yes,Raw,,,,,100,110,120,120,,BD,200,1
Denis Avdeev,Teen,2005,64.2,40,-42.5,-42.5,40,,67.5,M,Денис Авдеев,Yes,Raw,,,,,82.5,90,-95,90,,BD,130,2
Vitaliy Poluyanenkov,Open,1988,73.7,-145,-145,145,145,,75,M,Виталий Полуяненков,Yes,Raw,,,,,190,200,-210,200,,BD,345,1
Igor Pashkov,Open,1986,79.2,130,135,-140,135,,82.5,M,Игорь Пашков,Yes,Raw,,,,,230,237.5,-242.5,237.5,,BD,372.5,3
Evgeniy Grishin,Open,1966,89.3,85,87.5,,87.5,,90,M,Евгений Гришин,Yes,Raw,,,,,125,132.5,140,140,,BD,227.5,4
Aleksey Sheykin,Open,1988,89.3,180,-185,-185,180,,90,M,,Yes,Raw,,,,,280,290,-300,290,,BD,470,2
Evgeniy Grishin,Masters 50-54,1966,89.3,85,87.5,,87.5,,90,M,Евгений Гришин,Yes,Raw,,,,,125,132.5,140,140,,BD,227.5,1
Altanbagana Sharavdorj,Open,1990,99.8,190,-197.5,-197.5,190,,100,M,,Yes,Raw,,,,,250,270,,270,,BD,460,1
Beglar Gadzhikurbanov,Open,1981,93.8,170,180,-185,180,,100,M,Беглар Гаджикурбанов,Yes,Raw,,,,,230,245,,245,,BD,425,2
Sergey Ukhanov,Masters 40-44,1974,98.3,180,190,195,195,,100,M,Сергей Уханов,Yes,Raw,,,,,230,245,-255,245,,BD,440,1
Magomedamin Israpilov,Masters 40-44,1975,107.3,160,170,,170,,110,M,Магомедамин Исрапилов,Yes,Raw,,,,,-180,180,-200,180,,BD,350,2
Ion Parshikov,Juniors 20-23,1995,114.1,145,152.5,157.5,157.5,,125,M,,Yes,Raw,,,,,230,-240,-240,230,,BD,387.5,1
Sabina Akhmetova,Open,1994,59.7,85,92.5,-97.5,92.5,,60,F,Сабина Ахметова,No,Single-ply,-200,200,-212.5,200,160,170,177.5,177.5,,SBD,470,1
Anna Morozova,Open,1991,72.4,80,85,-87.5,85,,75,F,Анна Морозова,No,Single-ply,157.5,-165,-172.5,157.5,142.5,150,-157.5,150,,SBD,392.5,1
Egor Savelyev,Juniors 20-23,1995,67.5,120,127.5,132.5,132.5,-137.5,67.5,M,Егор Савельев,No,Single-ply,170,180,186,186,165,177.5,182.5,182.5,,SBD,501,1
Edgar Keyan,Juniors 20-23,1995,81.3,105,112.5,-120,112.5,,82.5,M,Эдгар Кеян,No,Single-ply,175,185,192.5,192.5,165,-175,175,175,,SBD,480,1
Aleksey Emelyanov,Open,1983,79.4,175,185,192.5,192.5,,82.5,M,Алексей Емельянов,No,Single-ply,270,290,302.5,302.5,235,250,260,260,,SBD,755,1
Artem Krot,Open,1995,107.8,170,180,190,190,,110,M,Артем Крот,No,Single-ply,310,320,-330,320,350,365,-375,365,,SBD,875,1
Ivan Avramenko,Open,1988,109.4,-240,-250,-250,,,110,M,Иван Авраменко,No,Single-ply,330,-350,350,350,,,,,,SBD,,DQ
Roman Durnov,Open,1986,74.9,-155,155,,155,,75,M,Роман Дурнов,Yes,Single-ply,250,-280,,250,190,215,-225,215,,SBD,620,1
Viktor Yashin,Open,1987,82.2,125,132.5,137.5,137.5,,82.5,M,Виктор Яшин,Yes,Single-ply,225,232.5,237.5,237.5,190,210,-215,210,,SBD,585,2
