Division,WeightClassKg,Place,Name,Team,BodyweightKg,Best3SquatKg,Best3BenchKg,Best3DeadliftKg,TotalKg,Equipment,Event,Sex
Boys,51.71,1,Adel Jebokji,Port Neches-Groves,51.3,111.13,63.5,156.49,331.12,Single-ply,SBD,M
Boys,51.71,2,Patrick Herfurth,Orange Little Cypress-Mauriceville,48.17,108.86,52.16,136.08,297.1,Single-ply,SBD,M
Boys,51.71,3,Wren Miller,Bridge City,51.21,111.13,56.7,102.06,269.89,Single-ply,SBD,M
Boys,51.71,4,Windsor Nguyen,Bridge City,49.62,102.06,54.43,90.72,247.21,Single-ply,SBD,M
Boys,51.71,5,Travis White,Orange Little Cypress-Mauriceville,48.76,99.79,45.36,97.52,242.67,Single-ply,SBD,M
Boys,51.71,6,Robert Hunter,Nederland,50.3,88.45,45.36,81.65,215.46,Single-ply,SBD,M
Boys,51.71,7,Spencer Martin,Orange Little Cypress-Mauriceville,41.1,61.23,40.82,81.65,183.7,Single-ply,SBD,M
Boys,51.71,8,Tyler Cooper,Vidor,38.1,70.31,29.48,79.38,179.17,Single-ply,SBD,M
Boys,55.79,1,K Angus,Port Neches-Groves,52.34,136.08,79.38,145.15,360.61,Single-ply,SBD,M
Boys,55.79,2,T. McCoy,Port Neches-Groves,53.8,115.67,65.77,133.81,315.25,Single-ply,SBD,M
Boys,59.87,3,Zach Thomas,Orange Little Cypress-Mauriceville,55.84,111.13,77.11,120.2,308.44,Single-ply,SBD,M
Boys,55.79,4,Anthony Galvan,Channelview,52.3,111.13,65.77,124.74,301.64,Single-ply,SBD,M
Boys,55.79,5,Tanner Royal,Bridge City,53.75,90.72,45.36,122.47,258.55,Single-ply,SBD,M
Boys,55.79,6,John Breaux,Nederland,53.75,77.11,49.9,106.59,233.6,Single-ply,SBD,M
Boys,59.87,1,Beau Burleson,Woodville,57.7,170.1,108.86,174.63,453.59,Single-ply,SBD,M
Boys,59.87,2,David Bollinger,Vidor,57.52,158.76,111.13,170.1,439.98,Single-ply,SBD,M
Boys,59.87,3,Hunter Stout,Bridge City,59.56,172.37,81.65,176.9,430.91,Single-ply,SBD,M
Boys,59.87,4,Austin Leger,Lumberton,57.06,122.47,72.57,145.15,340.19,Single-ply,SBD,M
Boys,59.87,5,Keaton Baker,Lumberton,59.38,104.33,74.84,113.4,292.57,Single-ply,SBD,M
Boys,59.87,6,Mitchael Tyson,Nederland,56.93,97.52,54.43,113.4,265.35,Single-ply,SBD,M
Boys,59.87,7,Fred Smith,Vidor,56.74,86.18,49.9,106.59,242.67,Single-ply,SBD,M
Boys,67.13,1,Thad Whigham,Woodville,64.95,185.97,102.06,183.7,471.74,Single-ply,SBD,M
Boys,67.13,2,Austin Powell,Vidor,66.86,170.1,97.52,185.97,453.59,Single-ply,SBD,M
Boys,67.13,3,Daryl Palaganas,Channelview,60.33,158.76,102.06,170.1,430.91,Single-ply,SBD,M
Boys,67.13,4,Dwayne Colone,Beaumont Ozen,62.51,136.08,92.99,183.7,412.77,Single-ply,SBD,M
Boys,67.13,5,Delis Chalambaga,Deweyville,62.01,142.88,90.72,163.29,396.89,Single-ply,SBD,M
Boys,67.13,6,Colt Ryan,Lumberton,65.54,117.93,95.25,172.37,385.55,Single-ply,SBD,M
Boys,67.13,7,Tanner Williamson,Hamshire-Fannett,66.41,122.47,92.99,149.69,365.14,Single-ply,SBD,M
Boys,67.13,8,Jordin Pastorella,Nederland,66,142.88,70.31,145.15,358.34,Single-ply,SBD,M
Boys,67.13,9,Rafe Simmons,Lumberton,66.41,113.4,86.18,149.69,349.27,Single-ply,SBD,M
Boys,67.13,10,James Pierce,Nederland,62.87,117.93,81.65,142.88,342.46,Single-ply,SBD,M
Boys,67.13,11,Randy Toson,Beaumont Ozen,64.55,111.13,83.91,147.42,342.46,Single-ply,SBD,M
Boys,67.13,12,Quincy Honeycutt,Lumberton,65.14,97.52,97.52,147.42,342.46,Single-ply,SBD,M
Boys,67.13,13,Trevon Fobbs,Nederland,66.72,111.13,65.77,149.69,326.59,Single-ply,SBD,M
Boys,67.13,14,Brett Rodgers,Hamshire-Fannett,61.42,117.93,77.11,127.01,322.05,Single-ply,SBD,M
Boys,74.84,15,Josh Collins,Beaumont Ozen,67.31,120.2,79.38,113.4,312.98,Single-ply,SBD,M
Boys,67.13,16,Tim Moye,Woodville,66.09,120.2,65.77,115.67,301.64,Single-ply,SBD,M
Boys,67.13,17,Britton Clark,Lumberton,66.72,90.72,68.04,127.01,285.76,Single-ply,SBD,M
Boys,67.13,18,Chris Hagner,Nederland,62.87,104.33,56.7,120.2,281.23,Single-ply,SBD,M
Boys,67.13,19,Conrad Breitensten,Nederland,63.28,92.99,56.7,111.13,260.82,Single-ply,SBD,M
Boys,67.13,DQ,Colby Trahan,Bridge City,67.09,165.56,,,,Single-ply,SBD,M
Boys,74.84,1,Nick Dockens,Orange Little Cypress-Mauriceville,69.35,229.06,127.01,238.14,594.21,Single-ply,SBD,M
Boys,74.84,2,Austin Simmons,Hamshire-Fannett,70.03,204.12,156.49,192.78,553.38,Single-ply,SBD,M
Boys,74.84,3,Hugo Ceja,Port Neches-Groves,72.71,201.85,127.01,199.58,528.44,Single-ply,SBD,M
Boys,74.84,4,Darvin Gatlin,Beaumont West Brook,68.17,190.51,97.52,195.04,483.08,Single-ply,SBD,M
Boys,74.84,5,Jonah Howell,Lumberton,73.39,167.83,97.52,195.04,460.4,Single-ply,SBD,M
Boys,74.84,6,Justin Releford,Woodville,72.53,190.51,92.99,170.1,453.59,Single-ply,SBD,M
Boys,74.84,7,Juan Lugo,Beaumont West Brook,71.85,163.29,92.99,163.29,419.57,Single-ply,SBD,M
Boys,74.84,8,Arvie Antoine,Port Neches-Groves,72.98,161.03,99.79,142.88,403.7,Single-ply,SBD,M
Boys,74.84,9,Chris Stokes,Hamshire-Fannett,68.13,149.69,92.99,156.49,399.16,Single-ply,SBD,M
Boys,74.84,10,David Smallwood,Vidor,73.62,167.83,86.18,142.88,396.89,Single-ply,SBD,M
Boys,74.84,11,DJ Aull,Vidor,71.03,142.88,92.99,158.76,394.63,Single-ply,SBD,M
Boys,74.84,12,Kielan Jones,Beaumont Ozen,73.3,136.08,83.91,151.95,371.95,Single-ply,SBD,M
Boys,74.84,13,Noah Orgysiak,Nederland,73.66,111.13,99.79,142.88,353.8,Single-ply,SBD,M
Boys,74.84,14,Brandon Thomas,Lumberton,73.75,138.35,74.84,140.61,353.8,Single-ply,SBD,M
Boys,74.84,15,Caleb Cook,Lumberton,74.39,124.74,81.65,129.27,335.66,Single-ply,SBD,M
Boys,74.84,16,Chris Cleveland,Vidor,72.21,108.86,74.84,142.88,326.59,Single-ply,SBD,M
Boys,74.84,17,Phillip Noble,Woodville,68.76,131.54,72.57,117.93,322.05,Single-ply,SBD,M
Boys,74.84,18,Xavier Mitchell,Beaumont Central,70.22,102.06,74.84,138.35,315.25,Single-ply,SBD,M
Boys,74.84,19,Earl Monroe,Beaumont Central,70.72,102.06,68.04,136.08,306.17,Single-ply,SBD,M
Boys,74.84,20,Kenyon Vallier,Beaumont Central,68.22,113.4,74.84,108.86,297.1,Single-ply,SBD,M
Boys,74.84,21,Christian Lewis,Beaumont Ozen,68.17,86.18,65.77,99.79,251.74,Single-ply,SBD,M
Boys,74.84,22,Tyler Gracedale,Lumberton,69.17,81.65,43.09,117.93,242.67,Single-ply,SBD,M
Boys,74.84,DQ,Jacobie Brown,Beaumont West Brook,71.26,149.69,,,,Single-ply,SBD,M
Boys,74.84,DQ,Micheal Godeaux,Vidor,71.53,185.97,,,,Single-ply,SBD,M
Boys,82.1,1,Robert Johnson,Nederland,76.7,281.23,142.88,278.96,703.07,Single-ply,SBD,M
Boys,82.1,2,Justin Hicks,Channelview,79.29,226.8,149.69,242.67,619.15,Single-ply,SBD,M
Boys,82.1,3,Christian Andrews,Beaumont Ozen,76.84,215.46,142.88,204.12,562.45,Single-ply,SBD,M
Boys,82.1,4,Coleton Boudreaux,Orange Little Cypress-Mauriceville,81.69,215.46,136.08,183.7,535.24,Single-ply,SBD,M
Boys,82.1,5,Joshua Bowie,Beaumont West Brook,81.56,197.31,124.74,199.58,521.63,Single-ply,SBD,M
Boys,82.1,6,Corey Mitchell,Woodville,81.33,163.29,97.52,183.7,444.52,Single-ply,SBD,M
Boys,82.1,7,L Chipman,Port Neches-Groves,78.97,127.01,83.91,188.24,399.16,Single-ply,SBD,M
Boys,82.1,8,Demetri Stamatus,Nederland,75.7,136.08,99.79,151.95,387.82,Single-ply,SBD,M
Boys,82.1,9,Kenny Sanderson,Lumberton,76.61,113.4,81.65,136.08,331.12,Single-ply,SBD,M
Boys,82.1,10,Josh Alfred,Beaumont West Brook,75.48,113.4,79.38,131.54,324.32,Single-ply,SBD,M
Boys,82.1,DQ,Jonathan Brown,Beaumont West Brook,80.6,,,,,Single-ply,SBD,M
Boys,82.1,DQ,Reggie Begelton,Beaumont West Brook,79.83,179.17,,,,Single-ply,SBD,M
Boys,99.79,1,Jonathon Fontenot,Orange Little Cypress-Mauriceville,89.9,256.28,158.76,242.67,657.71,Single-ply,SBD,M
Boys,89.81,2,Dustin Hicks,Channelview,85.91,229.06,156.49,229.06,614.62,Single-ply,SBD,M
Boys,89.81,3,Bruce Reyes,Beaumont West Brook,83.69,238.14,122.47,215.46,576.06,Single-ply,SBD,M
Boys,89.81,4,Anthony Breed,Beaumont Ozen,89.31,204.12,136.08,226.8,566.99,Single-ply,SBD,M
Boys,89.81,5,Matthew Moore,Beaumont Central,88.72,195.04,115.67,204.12,514.83,Single-ply,SBD,M
Boys,89.81,6,Brentyn Clark,Vidor,86.23,188.24,124.74,183.7,496.68,Single-ply,SBD,M
Boys,89.81,7,Coby Holley,Vidor,83.28,199.58,124.74,167.83,492.15,Single-ply,SBD,M
Boys,89.81,8,Martin Keyon,Beaumont Ozen,84.41,190.51,115.67,183.7,489.88,Single-ply,SBD,M
Boys,89.81,9,Austin Broussard,Bridge City,86.36,179.17,124.74,179.17,483.08,Single-ply,SBD,M
Boys,89.81,10,Adrian Lacy,Woodville,88.41,181.44,113.4,181.44,476.27,Single-ply,SBD,M
Boys,89.81,11,Zach Griffin,Beaumont Central,87.04,167.83,104.33,192.78,464.93,Single-ply,SBD,M
Boys,89.81,12,Garrett Derouren,Woodville,89.31,165.56,111.13,172.37,449.06,Single-ply,SBD,M
Boys,89.81,13,Blake Trejo,Nederland,86.82,147.42,102.06,165.56,415.04,Single-ply,SBD,M
Boys,89.81,14,Brinkley Jacob,Nederland,88.68,147.42,83.91,165.56,396.89,Single-ply,SBD,M
Boys,89.81,15,Matthew Carter,Beaumont West Brook,86.14,163.29,81.65,140.61,385.55,Single-ply,SBD,M
Boys,89.81,16,Felix Johnson,Woodville,83.14,124.74,99.79,136.08,360.61,Single-ply,SBD,M
Boys,89.81,17,Colby Delk,Lumberton,82.78,113.4,63.5,99.79,276.69,Single-ply,SBD,M
Boys,99.79,DQ,Dillan Trahan,Bridge City,89.9,176.9,131.54,,,Single-ply,SBD,M
Boys,89.81,DQ,Justin Vallerie,Beaumont Central,86.14,102.06,,,,Single-ply,SBD,M
Boys,99.79,1,Mitchell Jennings,Orange Little Cypress-Mauriceville,99.52,231.33,163.29,192.78,587.4,Single-ply,SBD,M
Boys,99.79,2,Dijon Moon,Channelview,98.84,217.72,133.81,226.8,578.33,Single-ply,SBD,M
Boys,99.79,3,Dean Whitfield,Deweyville,99.61,229.06,129.27,206.38,564.72,Single-ply,SBD,M
Boys,99.79,4,Kenny Quintana,Channelview,94.44,197.31,136.08,210.92,544.31,Single-ply,SBD,M
Boys,99.79,5,Edmund Horn,Lumberton,90.95,199.58,136.08,181.44,517.1,Single-ply,SBD,M
Boys,99.79,6,Rj Pastroella,Nederland,96.84,195.04,129.27,192.78,517.1,Single-ply,SBD,M
Boys,99.79,7,Jerry Dinh,Beaumont Central,90.67,158.76,138.35,183.7,480.81,Single-ply,SBD,M
Boys,99.79,8,Blake Nolan,Nederland,90.95,158.76,95.25,165.56,419.57,Single-ply,SBD,M
Boys,99.79,9,Adrien Hopkins,Beaumont Central,94.53,136.08,120.2,163.29,419.57,Single-ply,SBD,M
Boys,99.79,10,Jacob Frost,Nederland,92.62,165.56,77.11,163.29,405.97,Single-ply,SBD,M
Boys,99.79,11,Travis Gracedel,Lumberton,91.85,131.54,77.11,154.22,362.87,Single-ply,SBD,M
Boys,99.79,12,Camron Denson,Nederland,94.53,127.01,79.38,156.49,362.87,Single-ply,SBD,M
Boys,109.77,1,Terchan Newman,Beaumont West Brook,101.51,260.82,142.88,249.48,653.17,Single-ply,SBD,M
Boys,109.77,2,Allen Harris,Beaumont Central,101.56,240.4,140.61,249.48,630.49,Single-ply,SBD,M
Boys,109.77,3,Colby Castillo,Lumberton,106.96,192.78,124.74,195.04,512.56,Single-ply,SBD,M
Boys,109.77,4,Cody Robinson,Lumberton,105.69,204.12,124.74,181.44,510.29,Single-ply,SBD,M
Boys,109.77,5,Shawndre Brown,Port Arthur Memorial,108.18,190.51,108.86,208.65,508.02,Single-ply,SBD,M
Boys,109.77,6,Zach Burkhalter,Lumberton,106.87,172.37,117.93,181.44,471.74,Single-ply,SBD,M
Boys,109.77,7,Kyle Holmes,Beaumont Central,103.51,145.15,113.4,204.12,462.66,Single-ply,SBD,M
Boys,109.77,8,J. Riley,Port Neches-Groves,104.46,185.97,111.13,165.56,462.66,Single-ply,SBD,M
Boys,109.77,9,Blake Kight,Lumberton,103.65,140.61,81.65,181.44,403.7,Single-ply,SBD,M
Boys,109.77,10,Branch Harper,Vidor,102.74,147.42,90.72,136.08,374.21,Single-ply,SBD,M
Boys,109.77,11,Evan Barrios,Lumberton,106.73,145.15,88.45,120.2,353.8,Single-ply,SBD,M
Boys,109.77,12,Stefan Griggs,Nederland,108.23,117.93,77.11,140.61,335.66,Single-ply,SBD,M
Boys,109.77,DQ,Chris Henry,Nederland,101.56,,,,,Single-ply,SBD,M
Boys,124.74,1,Thomas Luce,Bridge City,121.74,331.12,167.83,238.14,737.09,Single-ply,SBD,M
Boys,124.74,2,Taylor Thompson #1,Port Neches-Groves,110.59,283.5,167.83,244.94,696.26,Single-ply,SBD,M
Boys,124.74,3,Cameron Allen,Orange Little Cypress-Mauriceville,124.6,238.14,154.22,251.74,644.1,Single-ply,SBD,M
Boys,124.74,4,Aaron Easley,Port Neches-Groves,121.61,278.96,142.88,204.12,625.96,Single-ply,SBD,M
Boys,124.74,5,Justin Brock,Beaumont West Brook,113.72,192.78,111.13,213.19,517.1,Single-ply,SBD,M
Boys,124.74,6,Thalan Payne,Beaumont Ozen,122.52,183.7,124.74,208.65,517.1,Single-ply,SBD,M
Boys,124.74,7,Justin Watts,Beaumont Ozen,120.93,158.76,77.11,136.08,371.95,Single-ply,SBD,M
Boys,124.74,8,Miseal Ortiz,Bridge City,120.2,142.88,83.91,138.35,365.14,Single-ply,SBD,M
Boys,124.74,9,Mikal Cisneros,Lumberton,113.35,122.47,70.31,136.08,328.85,Single-ply,SBD,M
Boys,124.74,DQ,Jordan Laughlin,Hamshire-Fannett,122.56,181.44,,,,Single-ply,SBD,M
Boys,124.74+,1,Josue Toledo,Channelview,130,260.82,147.42,260.82,669.05,Single-ply,SBD,M
Boys,124.74+,2,Nashawn Edwards,Beaumont Ozen,152.41,229.06,113.4,229.06,571.53,Single-ply,SBD,M
Boys,124.74+,3,Caleb Malveaux,Nederland,136.08,226.8,154.22,183.7,564.72,Single-ply,SBD,M
Boys,124.74+,4,Andrew Granville,Channelview,128,226.8,138.35,192.78,557.92,Single-ply,SBD,M
Boys,124.74+,5,Jonathan Ned,Port Arthur Memorial,130.63,170.1,106.59,201.85,478.54,Single-ply,SBD,M
