Name,Event,Equipment,Age,Team,Sex,BirthDate,Division,BodyweightKg,WeightClassKg,Bench1Kg,Bench2Kg,Bench3Kg,Bench4Kg,Best3BenchKg,TotalKg,Place
Soledad Ambrosio,B,Raw,25,Polifemus,F,1988-09-09,FO,55.1,56,50,60,65,,65,65,1
Claudia Bertona,B,Raw,42,Dimaro,F,1971-07-03,F1,54.6,56,70.5,72.5,76,,76,76,1
Carolina Franco,B,Raw,17,Polifemus,F,1996-06-23,FT2,56.4,60,50,-57.5,,,50,50,1
Lucila Rabasa,B,Raw,27,Dimaro,F,1986-12-05,FO,56.6,60,80,85,-87.5,,85,85,1
Claudia Machuca,B,Raw,43,Polifemus,F,1970-10-26,F1,58.7,60,35,40,45,,45,45,1
Aida Agüero,B,Raw,52,Dimaro,F,1961-09-15,FO,64.9,67.5,115,125,-130.5,,125,125,1
Rosa Floriano,B,Raw,41,CEF N°1,F,1973-02-04,F1,78.9,82.5,100,110,-125,,110,110,1
Mariela Ortellado,B,Raw,28,Castrilli,F,1985-07-10,FO,95.3,90+,65,-70,-70,,65,65,1
Alberto Velazquez,B,Raw,21,CEF N°1,M,1992-10-21,MJ,55.9,56,60,70,85,90,85,85,1
Ivan Pintos,B,Raw,,,M,,MES,54.8,56,-100,-100,-100,,,,DQ
German Diaz Osorio,B,Raw,39,,M,1974-11-15,MES,52.1,56,100,-105,-105,,100,100,1
Kevin Aguirre,B,Raw,17,Polifemus,M,1996-06-24,MT2,57.9,60,50,57.5,-60,,57.5,57.5,1
Nicolas Salas,B,Raw,18,Aquiles,M,1995-08-26,MT3,59,60,90,-100,-100,,90,90,1
Axel Vazquez,B,Raw,14,Fenix,M,1999-07-17,MT1,62.6,67.5,70,-80,-80,,70,70,1
Matías Carrizo,B,Raw,17,Defensores de Gllew,M,1996-10-17,MT2,64,67.5,-80,-80,-80,,,,DQ
Federico Bordon,B,Raw,18,Polifemus,M,1995-08-30,MT3,62.1,67.5,90,97.5,-101,,97.5,97.5,1
Gabriel Sanchez,B,Raw,21,Cruz Del Sur,M,1992-07-21,MJ,63.5,67.5,105,-110,-110,,105,105,1
Facundo Rovetta,B,Raw,24,CEF Nº1,M,1990-03-01,MO,64.9,67.5,100,-107.5,-107.5,,100,100,1
Pablo Cornejo,B,Raw,25,Xtreme Gym,M,1988-07-25,MO,66.3,67.5,-110,-110,-110,,,,DQ
Esteban Noe,B,Raw,24,Polifemus,M,1989-08-05,MO,63.1,67.5,80,90,-95,,90,90,2
Victor Minaccio,B,Raw,68,Dimaro,M,1945-08-23,M6,67.1,67.5,70,77.5,-80,,77.5,77.5,1
Diego Ramírez,B,Raw,33,CEF Nº1,M,1981-01-17,MES,69.9,75,-135,-135,135,,135,135,1
David Zerpa,B,Raw,23,CLUB ATLETICO PARQUE ROCA,M,1991-02-11,MJ,69.7,75,100,105,-110,,105,105,1
Lucas Nicolas Bonzi,B,Raw,18,Cruz Del Sur,M,1995-09-15,MT3,69.7,75,90,100,-105,,100,100,1
Gustavo Ramirez,B,Raw,42,Elite,M,1971-11-09,M1,69.3,75,-130,130,135,-137.5,135,135,1
Jose Luis Ferrer,B,Raw,49,Dimaro,M,1965-05-10,M2,68.7,75,100,105,-110,,105,105,1
Carlos Villagra,B,Raw,60,Dimaro,M,1953-12-28,M5,72.8,75,40,50,60,,60,60,9
Juan Sosa,B,Raw,33,Xtreme Gym,M,1981-03-24,MSM,73.3,75,125,130,-135,,130,130,2
Felix Camin,B,Raw,36,Dimaro,M,1977-10-14,MSM,73.6,75,150,-160,-160,,150,150,1
Manuel Beltrán,B,Raw,24,Fenix,M,1990-01-03,MO,71.2,75,100,110,-115,,110,110,3
Marcelo Ojeda,B,Raw,16,Power Gym,M,1998-02-24,MT2,81.7,82.5,70,80,85,,85,85,1
Nicolas Fernandez,B,Raw,19,Xtreme Gym,M,1994-10-05,MT3,77.1,82.5,105,110,-112.5,,110,110,1
Rolando Vera,B,Raw,24,Polifemus,M,1989-12-08,MO,80.2,82.5,95,-105,-105,,95,95,3
Marcos Velozo,B,Raw,37,CEF Nº1,M,1977-04-24,MSM,78.9,82.5,170,182.5,183,,183,183,1
Patricio Rodriguez,B,Raw,27,CEF Nº1,M,1986-10-11,MO,80.6,82.5,120,-125,-125,,120,120,2
Matias Rodriguez,B,Raw,,LMN,M,,MO,80.6,82.5,-130,-130,-130,,,,DQ
Gabriel Jose Cisnero,B,Raw,41,Aquiles,M,1973-01-16,M1,78.8,82.5,95,-105,-105,,95,95,2
Rafael Silva,B,Raw,44,CEF Nº1,M,1969-09-14,M1,79.8,82.5,130,140,-150,,140,140,1
Sergio Salas,B,Raw,34,ATENAS,M,1980-02-27,MO,80.2,82.5,-105,105,110,,110,110,4
Jorge Duran,B,Raw,53,ATENAS,M,1960-05-23,M3,80.4,82.5,100,105,110,,110,110,1
Horacio Zoilo,B,Raw,72,Dimaro,M,1941-11-17,M7,78.3,82.5,60,,,,60,60,1
Facundo San Miguel,B,Raw,15,Dimaro,M,1999-01-01,MT1,85.3,90,40,47.5,-52.5,,47.5,47.5,1
Federico Leotta,B,Raw,18,Fenix,M,1995-05-27,MT3,88.5,90,-190,200,-210,,200,200,9
Brian Alimusi,B,Raw,,Defensores de Glew,M,,MT3,88,90,120,130,-140,,130,130,9
Matías Santa Cruz,B,Raw,26,CEF N°1,M,1987-09-19,MO,88.1,90,170,175,-180,,175,175,1
Cesar Ariel Vera,B,Raw,35,Cruz Del Sur,M,1978-09-24,MSM,85.9,90,90,100,-110,,100,100,4
Marcelo Garzella,B,Raw,28,Polifemus,M,1986-01-08,MO,89.2,90,125,130,-135,,130,130,2
Felipe Nahuel Villa,B,Raw,24,Aquiles,M,1989-07-06,MO,85.5,90,-127.5,127.5,-132.5,,127.5,127.5,3
Luis Fonzalida,B,Raw,,Defensores de Glew,M,,MO,89.9,90,-120,120,130,,130,130,9
Simon Godoy,B,Raw,43,LMN,M,1970-11-27,M1,87.4,90,-170,170,,,170,170,1
Fernando Cortez,B,Raw,45,Azis Olum,M,1969-05-05,M2,84.9,90,85,-95,-95,,85,85,3
Jose Carambia,B,Raw,47,Dimaro,M,1967-02-04,M2,89.3,90,140,147.5,-152.5,,147.5,147.5,1
Jorge Franco,B,Raw,46,Polifemus,M,1967-07-17,M2,84.4,90,125,135,-145,,135,135,2
Eduardo Caceres,B,Raw,51,Polifemus,M,1963-03-03,M3,86.2,90,85,95,-100,,95,95,1
Sergio Núñez,B,Raw,,Dimaro,M,,M3,85.2,90,-100,-100,-100,,,,DQ
Dario Martinez,B,Raw,73,Dimaro,M,1941-01-23,M7,88.6,90,75,-80,-80,,75,75,2
Oscar Espinello,B,Raw,72,Dimaro,M,1941-11-17,M7,89.5,90,75,-80,80,,80,80,1
Lucas Rene Basualdo,B,Raw,33,,M,1981-02-20,MES,,90,117.5,122.5,-125,,122.5,122.5,1
Emanuel Romero,B,Raw,18,Aquiles,M,1995-07-11,MT3,92.6,100,110,120,-127.5,,120,120,1
Lautaro Siles,B,Raw,15,Defensores de Glew,M,1998-06-26,MT1,98.4,100,70,85,-100,,85,85,1
Martín Muñoz,B,Raw,,,M,,MJ,96,100,160,170,180,,180,180,9
Leandro Gimenez,B,Raw,27,CEF Nº1,M,1987-04-07,MO,92.4,100,160,165,170,,170,170,1
Jose Albornoz,B,Raw,33,Xtreme Gym,M,1980-09-24,MSM,99.9,100,150,-160,160,,160,160,2
Gustavo Miño,B,Raw,43,Dimaro,M,1971-01-15,M1,90.7,100,-140,140,-150,,140,140,2
Walter Diaz #1,B,Raw,40,Master Gym,M,1973-07-03,M1,93.4,100,140,-150,-150,,140,140,3
Facundo Paz,B,Raw,40,Iron Man,M,1974-02-05,M1,97.2,100,160,-175,-175,,160,160,1
Sergio Gayoso,B,Raw,53,Celp,M,1961-04-17,M3,99.2,100,125,132.5,,,132.5,132.5,1
Miguel Nardini,B,Raw,73,Dimaro,M,1940-12-08,M7,92,100,105,115,-120,,115,115,1
Diego Ojeda,B,Raw,38,Dimaro,M,1975-08-26,MSM,102,110,170,185,-196,,185,185,1
Walter Morales,B,Raw,41,Celp,M,1972-06-04,M1,104.6,110,155,170,-180,,170,170,1
Victor Quispe,B,Raw,43,Dimaro,M,1970-09-27,M1,105,110,130,140,-150,,140,140,2
Marcos Cardenas,B,Raw,,Dimaro,M,,M1,107.1,110,150,160,170,,170,170,9
Omar Cordoba,B,Raw,48,CEF Nº1,M,1966-02-07,M2,106.2,110,-135,135,145,150,145,145,1
Juan Domingo Pelozo,B,Raw,59,Polifemus,M,1954-06-21,M4,108.6,110,80,87.5,90,,90,90,1
Gastón Melgarejo,B,Raw,25,CEF Nº1,M,1988-08-26,MO,115.4,125,190,200,-205,,200,200,3
Cristian Gutierrez,B,Raw,,Apalpo,M,,MO,110.3,125,190,-200,205,,205,205,2
Jose Cirullo,B,Raw,21,Polifemus,M,1992-09-01,MJ,123.2,125,130,135,140,,140,140,1
Jaime Quiñones,B,Raw,19,Anelpo,M,,MT3,110.2,125,100,110,-125,,110,110,1
Salvador Accari,B,Raw,27,Dimaro,M,1986-10-20,MO,117.6,125,200,205,207.5,-215.5,207.5,207.5,1
Ruben Alvarez,B,Raw,27,Power Gym,M,1987-03-19,MO,114.1,125,120,125,-130,,125,125,4
Ernesto Daniel Queiruga,B,Raw,44,Dimaro,M,1970-05-10,M1,117.8,125,200,210,-220,,210,210,1
Eduardo Angel Alcaraz,B,Raw,45,Cruz Del Sur,M,1968-12-14,M2,113,125,230,242.5,-250,,242.5,242.5,1
Gonzalo Iriarte,B,Raw,34,Neo Sport,M,1980-02-13,MSM,134.1,140,180,190,-200,,190,190,2
Ruben Veron,B,Raw,27,Polifemus,M,1986-11-28,MO,139.7,140,170,180,-185,,180,180,3
Victor Favalini,B,Raw,39,Fenix,M,1974-06-15,MSM,137.1,140,190,195,-200,,195,195,1
Walter Martin San Miguel,B,Raw,42,Dimaro,M,1971-06-26,M1,135,140,160,,,,160,160,1
Lucila Rabasa,B,Multi-ply,27,Dimaro,F,1986-12-05,FO,56.6,60,87.5,92.5,95,-98,95,95,1
Elvira Montenegro,B,Multi-ply,66,Magnus Sur,F,1947-05-11,F6,64.7,67.5,45,-50,50,,50,50,1
Melisa Aguirre,B,Multi-ply,36,Elite,F,1978-03-01,FSM,76.6,82.5,60,-65,65,,65,65,1
Rosa Floriano,B,Multi-ply,41,CEF N°1,F,1973-02-04,F1,78.9,82.5,125,130,-150,,130,130,1
Pablo Slotiuk,B,Multi-ply,19,Dimaro,M,1995-05-02,MT3,62.1,67.5,-75,75,-85,,75,75,9
Alejandro Anfora,B,Multi-ply,25,Dimaro,M,1988-09-16,MO,64.8,67.5,110,115,120,-125,120,120,9
Jose Luis Ferrer,B,Multi-ply,49,Dimaro,M,1965-05-10,M2,68.7,75,115,125,135,,135,135,1
Mario Rodriguez #1,B,Multi-ply,76,Magnus Sur,M,1937-07-28,M8,75,75,95,107.5,-112.5,,107.5,107.5,1
Jorge Sarmiento,B,Multi-ply,21,Rosell,M,1992-08-14,MJ,70.7,75,130,140,147.5,-152.5,147.5,147.5,1
Felix Camin,B,Multi-ply,36,Dimaro,M,1977-10-14,MSM,73.6,75,175,185,190.5,193,190.5,190.5,1
Alexis Martinez #12,B,Multi-ply,33,Rosell,M,1980-08-13,MO,74.9,75,135,142.5,147.5,,147.5,147.5,2
Walter Barrionuevo,B,Multi-ply,26,Fenix,M,1987-07-12,MO,82.4,82.5,240,-260,-260,,240,240,1
Jesus Balbiano,B,Multi-ply,29,Power Gym,M,1984-07-25,MO,80.7,82.5,130,140,-145,,140,140,2
Marcos Da Sosa,B,Multi-ply,18,Power Gym,M,1995-08-25,MT3,83.2,90,-125,125,135,,135,135,1
Ivan Suarez,B,Multi-ply,22,Fenix,M,1991-09-14,MJ,78.4,82.5,-140,150,-152.5,,150,150,1
Oscar Figueredo,B,Multi-ply,42,Power Gym,M,1972-05-06,M1,81.1,82.5,140,152.5,160.5,,160.5,160.5,1
Gabriel Jose Cisnero,B,Multi-ply,41,Aquiles,M,1973-01-16,M1,78.8,82.5,-120,120,125,,125,125,2
Emiliano Acosta,B,Multi-ply,67,CEF N°1,M,1946-11-12,M6,80.2,82.5,130,135,-140.5,,135,135,1
Juan Pereyra #1,B,Multi-ply,67,Power Gym,M,1946-12-21,M6,75.8,82.5,110,-120,,,110,110,2
Horacio Zoilo,B,Multi-ply,72,Dimaro,M,1941-11-17,M7,78.3,82.5,65,,,,65,65,1
Ramiro Loeffel,B,Multi-ply,32,Rosell,M,1982-01-03,MO,84.7,90,180,190,-205,,190,190,2
Rodolfo Villalba,B,Multi-ply,39,CEF N°1,M,1974-07-16,MSM,87.8,90,190,205,-210,,205,205,1
Felipe Nahuel Villa,B,Multi-ply,24,Aquiles,M,1989-07-06,MO,85.5,90,150,155,-160,,155,155,3
Daniel Sánchez,B,Multi-ply,40,Celp,M,1973-11-21,M1,89.4,90,130,230,-245,,230,230,1
Oscar Insaurralde,B,Multi-ply,52,CEF N°1,M,1962-03-28,M3,86.1,90,185,-190,190,,190,190,1
Oscar Espinello,B,Multi-ply,72,Dimaro,M,1941-11-17,M7,89.5,90,85,95,105,,105,105,1
Víctor Giles,B,Multi-ply,32,Fenix,M,1981-08-07,MO,93.2,100,-260,-260,-270,,,,DQ
Luis Bucek,B,Multi-ply,27,CEF N°1,M,1986-10-09,MO,91.1,100,165,-170,170,,170,170,1
Sergio Gayoso,B,Multi-ply,53,Celp,M,1961-04-17,M3,99.2,100,145,170,180,-187.5,180,180,1
Miguel Nardini,B,Multi-ply,73,Dimaro,M,1940-12-08,M7,92,100,130,140,-145,,140,140,1
Diego Ojeda,B,Multi-ply,38,Dimaro,M,1975-08-26,MSM,102,110,160,250,-270,,250,250,1
Victor Quispe,B,Multi-ply,43,Dimaro,M,1970-09-27,M1,105,110,160,170,180,,180,180,1
Nicodemo Beroisa,B,Multi-ply,52,Neo Sport,M,1962-01-06,M3,101.4,110,-140,-140,140,,140,140,1
Juan Domingo Pelozo,B,Multi-ply,59,Polifemus,M,1954-06-21,M4,108.6,110,105,110,-115,,110,110,2
Sergio Devich,B,Multi-ply,64,Dimaro,M,1950-01-29,M5,109.4,110,120,-130,130,,130,130,1
Feliciano Rodriguez,B,Multi-ply,70,Magnus Sur,M,1943-07-31,M7,101.4,110,110,115,117.5,,117.5,117.5,1
Pablo Beroisa,B,Multi-ply,21,Neo Sport,M,1993-03-30,MJ,104.7,110,-185,190,-195,,190,190,1
Gastón Melgarejo,B,Multi-ply,25,CEF N°1,M,1988-08-26,MO,115.4,125,180,245,250,,250,250,1
Walter Martin San Miguel,B,Multi-ply,42,Dimaro,M,1971-06-26,MO,135,140,160,180,200,,200,200,1
Ernesto Daniel Queiruga,B,Multi-ply,44,Dimaro,M,1970-05-10,M1,117.8,125,270,285,-290,,285,285,1
Eduardo Angel Alcaraz,B,Multi-ply,45,Cruz Del Sur,M,1968-12-14,M2,113,125,200,230,250,-260,250,250,1
Jorge Alvarez,B,Multi-ply,53,Magnus Sur,M,1961-04-20,M3,164,140+,100,,,,100,100,1
